Customer ID,Purchase Date,Location,Product,Color,MRP,Discount (%),Gender,Payment Method,Quantity,Product Rating
SRI9918,2024-06-04,Barrackpore,Oxford Shoes,Burgundy,674.63,5,Female,CASH,2,3
SRI2042,2024-04-08,Ballygunj,Loafers,Charcoal Grey,4542.37,19,Female,EMI,2,5
SRI4600,2023-12-03,Sodepur,Brouges,Burgundy,1701.99,23,Male,EMI,5,5
SRI4455,2023-08-26,Howrah,Purse,Dark Brown,2976.35,15,Male,EMI,4,5
SRI9903,2024-02-25,Sodepur,Loafers,Burgundy,4778.36,23,Male,CREDIT CARD,1,4
SRI8577,2024-04-06,Ballygunj,Brouges,Charcoal Grey,4139.66,12,Female,UPI,2,5
SRI2048,2023-08-12,Barrackpore,Wallet,Black,3169.36,7,Female,UPI,3,5
SRI6068,2023-11-23,Ballygunj,Belt,Charcoal Grey,547.18,7,Male,CASH,4,1
SRI4893,2023-12-08,Barrackpore,Purse,Burgundy,1389.56,27,Female,UPI,2,1
SRI6701,2023-11-13,Sodepur,Purse,Burgundy,967.76,26,Male,EMI,3,4
SRI4411,2023-07-02,Barrackpore,Wallet,Burgundy,4482.21,19,Female,CASH,1,2
SRI1559,2024-05-08,Sodepur,Loafers,Charcoal Grey,3968.45,12,Male,CASH,5,5
SRI8549,2024-04-06,Howrah,Oxford Shoes,Black,4984.41,8,Female,UPI,1,5
SRI8599,2024-06-11,Sodepur,Loafers,Dark Brown,1761.63,25,Female,UPI,5,5
SRI9966,2023-11-24,Barrackpore,Purse,Charcoal Grey,1567.37,16,Male,CREDIT CARD,2,4
SRI4754,2023-08-29,Ballygunj,Wallet,Charcoal Grey,3935.02,20,Female,CASH,3,1
SRI6723,2024-01-31,Howrah,Loafers,Burgundy,2850.99,14,Male,CREDIT CARD,4,5
SRI2128,2023-09-04,Howrah,Oxford Shoes,Charcoal Grey,4830.22,20,Female,UPI,3,3
SRI4277,2024-06-24,Barrackpore,Belt,Burgundy,2054.36,19,Female,EMI,4,4
SRI4293,2023-06-29,Barrackpore,Belt,Charcoal Grey,968.76,6,Male,CASH,2,3
SRI8806,2023-09-05,Sodepur,Oxford Shoes,Burgundy,4735.38,27,Male,CREDIT CARD,4,5
SRI6586,2024-06-12,Howrah,Belt,Black,3919.46,24,Female,EMI,2,2
SRI4829,2023-08-05,Ballygunj,Oxford Shoes,Charcoal Grey,1990.98,10,Female,UPI,4,5
SRI6407,2023-12-13,Howrah,Loafers,Burgundy,2058.85,26,Female,UPI,3,2
SRI2940,2023-07-07,Ballygunj,Loafers,Dark Brown,1479.64,13,Male,CREDIT CARD,1,2
SRI8497,2024-06-14,Barrackpore,Purse,Burgundy,4530.67,25,Female,EMI,3,5
SRI7049,2023-12-25,Ballygunj,Oxford Shoes,Charcoal Grey,2457.57,7,Male,CASH,4,3
SRI8032,2024-02-24,Howrah,Purse,Charcoal Grey,779.97,13,Female,CREDIT CARD,5,3
SRI1022,2023-09-25,Howrah,Belt,Dark Brown,2709.76,15,Male,CASH,2,2
SRI4902,2023-12-12,Sodepur,Brouges,Dark Brown,4342.91,18,Female,EMI,2,1
SRI9762,2024-04-24,Howrah,Belt,Charcoal Grey,642.38,18,Male,CREDIT CARD,1,2
SRI1546,2023-11-04,Barrackpore,Purse,Dark Brown,4672.12,16,Male,CREDIT CARD,3,4
SRI4326,2023-09-30,Howrah,Belt,Burgundy,1276.27,6,Female,UPI,2,2
SRI3962,2023-12-25,Ballygunj,Brouges,Charcoal Grey,2401.0,16,Female,EMI,1,4
SRI6379,2023-12-14,Howrah,Purse,Charcoal Grey,1632.21,13,Male,UPI,1,1
SRI2644,2024-03-13,Sodepur,Purse,Burgundy,1953.4,5,Male,UPI,4,1
SRI8949,2024-06-04,Howrah,Wallet,Black,2832.36,23,Male,CASH,1,2
SRI9000,2024-01-04,Howrah,Oxford Shoes,Black,1962.13,27,Female,EMI,5,4
SRI9858,2023-12-12,Ballygunj,Wallet,Burgundy,4875.54,7,Male,EMI,1,5
SRI2106,2023-09-09,Ballygunj,Oxford Shoes,Charcoal Grey,958.22,20,Male,UPI,5,2
SRI3073,2023-07-03,Sodepur,Oxford Shoes,Black,1747.22,22,Female,CASH,4,5
SRI3556,2023-11-04,Sodepur,Loafers,Dark Brown,2810.92,16,Female,CASH,5,3
SRI3255,2024-01-19,Barrackpore,Wallet,Burgundy,1608.65,22,Male,CASH,3,4
SRI2532,2024-03-17,Ballygunj,Wallet,Black,4023.87,5,Male,CASH,1,1
SRI4463,2024-05-05,Barrackpore,Oxford Shoes,Black,2529.99,7,Female,EMI,5,5
SRI7275,2024-02-16,Sodepur,Belt,Dark Brown,1527.08,21,Female,UPI,2,5
SRI5729,2024-03-18,Ballygunj,Wallet,Burgundy,1224.33,6,Female,EMI,1,1
SRI2820,2024-04-28,Ballygunj,Belt,Black,800.03,21,Female,CREDIT CARD,1,1
SRI1059,2024-04-28,Howrah,Oxford Shoes,Charcoal Grey,1172.84,17,Female,EMI,1,5
SRI5957,2024-04-24,Sodepur,Purse,Charcoal Grey,2422.1,16,Male,CASH,2,3
SRI2461,2023-07-06,Sodepur,Loafers,Charcoal Grey,1596.77,24,Female,CREDIT CARD,5,5
SRI1046,2024-05-08,Barrackpore,Loafers,Burgundy,1331.63,23,Female,CREDIT CARD,2,4
SRI2958,2023-10-19,Howrah,Loafers,Dark Brown,3250.26,15,Male,EMI,4,1
SRI5128,2023-09-28,Sodepur,Wallet,Black,1783.26,13,Male,CREDIT CARD,1,2
SRI5322,2023-10-17,Howrah,Belt,Black,4522.15,11,Female,UPI,3,5
SRI8883,2023-10-29,Howrah,Brouges,Dark Brown,2152.6,28,Male,CASH,5,2
SRI9248,2024-01-15,Howrah,Loafers,Charcoal Grey,3208.09,27,Female,EMI,1,4
SRI1757,2024-03-03,Barrackpore,Loafers,Burgundy,3373.97,16,Male,UPI,5,4
SRI4043,2024-03-15,Sodepur,Purse,Black,1874.42,27,Female,UPI,1,1
SRI6247,2023-09-27,Sodepur,Oxford Shoes,Charcoal Grey,2218.02,12,Female,CASH,2,3
SRI3690,2023-08-24,Barrackpore,Purse,Burgundy,3103.63,16,Female,CREDIT CARD,3,1
SRI3415,2023-10-19,Ballygunj,Loafers,Black,4739.81,5,Male,EMI,1,2
SRI9891,2023-06-28,Ballygunj,Belt,Dark Brown,2008.98,25,Male,UPI,4,3
SRI1328,2023-08-11,Howrah,Belt,Charcoal Grey,2865.52,23,Male,CASH,1,2
SRI8969,2023-08-01,Barrackpore,Wallet,Black,2313.93,22,Female,CREDIT CARD,4,5
SRI5301,2024-04-11,Howrah,Oxford Shoes,Black,4137.08,21,Female,CASH,3,3
SRI6152,2024-05-26,Ballygunj,Belt,Black,3721.56,17,Male,EMI,5,1
SRI7613,2024-01-17,Sodepur,Oxford Shoes,Burgundy,2061.57,28,Female,CREDIT CARD,4,2
SRI1182,2023-12-01,Ballygunj,Belt,Black,1628.91,22,Female,CREDIT CARD,4,1
SRI8433,2023-08-30,Sodepur,Oxford Shoes,Dark Brown,1485.93,11,Male,CREDIT CARD,2,3
SRI4633,2023-07-28,Sodepur,Oxford Shoes,Charcoal Grey,2204.41,19,Female,CREDIT CARD,5,4
SRI7207,2023-11-18,Ballygunj,Wallet,Charcoal Grey,1312.59,23,Female,UPI,4,1
SRI1758,2024-03-21,Ballygunj,Purse,Charcoal Grey,3396.45,14,Male,CASH,3,3
SRI1718,2024-04-19,Sodepur,Oxford Shoes,Dark Brown,1402.37,24,Male,CREDIT CARD,5,4
SRI4949,2024-06-20,Sodepur,Purse,Burgundy,1343.26,8,Male,EMI,2,4
SRI5841,2023-11-17,Barrackpore,Belt,Burgundy,1064.15,22,Male,CASH,1,1
SRI9729,2024-06-24,Ballygunj,Wallet,Black,936.33,7,Female,UPI,5,4
SRI1572,2023-07-20,Barrackpore,Loafers,Black,3879.13,8,Male,EMI,1,3
SRI5058,2024-01-28,Barrackpore,Oxford Shoes,Burgundy,1162.22,10,Male,CREDIT CARD,1,4
SRI1541,2024-03-29,Sodepur,Brouges,Charcoal Grey,3158.84,16,Female,CREDIT CARD,1,3
SRI6311,2023-12-31,Sodepur,Wallet,Burgundy,2168.3,7,Male,CASH,4,3
SRI6073,2023-08-06,Ballygunj,Wallet,Burgundy,4452.1,10,Female,CASH,5,1
SRI9423,2023-08-12,Barrackpore,Brouges,Black,1008.35,20,Female,UPI,5,1
SRI1955,2024-06-23,Ballygunj,Belt,Burgundy,3604.0,9,Female,EMI,2,1
SRI3036,2023-08-18,Ballygunj,Purse,Charcoal Grey,4284.74,19,Male,UPI,1,1
SRI5804,2024-06-06,Barrackpore,Loafers,Black,907.35,14,Male,UPI,2,5
SRI4370,2023-12-09,Howrah,Loafers,Dark Brown,1117.5,28,Female,EMI,2,1
SRI7386,2024-04-06,Sodepur,Belt,Black,4965.21,29,Male,CASH,1,3
SRI8867,2023-12-29,Barrackpore,Loafers,Charcoal Grey,2725.28,28,Male,CASH,2,3
SRI1216,2024-01-22,Howrah,Brouges,Burgundy,723.56,19,Male,EMI,4,1
SRI9500,2023-09-29,Sodepur,Brouges,Dark Brown,1109.91,24,Female,UPI,5,1
SRI7089,2024-06-16,Barrackpore,Brouges,Charcoal Grey,854.05,7,Female,CREDIT CARD,5,2
SRI4540,2024-04-16,Ballygunj,Loafers,Black,1488.88,26,Female,EMI,1,3
SRI1695,2023-12-21,Sodepur,Brouges,Charcoal Grey,3489.38,22,Female,EMI,1,1
SRI2082,2024-04-13,Barrackpore,Belt,Charcoal Grey,3347.31,27,Male,EMI,2,1
SRI7306,2023-11-17,Barrackpore,Oxford Shoes,Dark Brown,2091.18,5,Female,EMI,3,2
SRI1020,2024-02-06,Howrah,Purse,Burgundy,3455.74,16,Female,CREDIT CARD,2,3
SRI3426,2024-04-10,Sodepur,Wallet,Black,2300.05,8,Female,CASH,2,4
SRI3303,2023-11-11,Barrackpore,Belt,Charcoal Grey,1731.75,21,Female,CREDIT CARD,2,2
SRI7091,2023-07-28,Ballygunj,Oxford Shoes,Charcoal Grey,1739.69,26,Male,EMI,2,4
SRI7083,2024-01-25,Howrah,Loafers,Charcoal Grey,4116.6,25,Male,UPI,2,3
SRI1973,2023-07-19,Howrah,Brouges,Dark Brown,1071.89,10,Male,CREDIT CARD,5,4
SRI6546,2024-01-04,Barrackpore,Wallet,Burgundy,3239.2,23,Female,CASH,1,2
SRI3692,2023-10-18,Howrah,Oxford Shoes,Dark Brown,549.53,28,Male,UPI,2,1
SRI4400,2023-07-14,Ballygunj,Brouges,Charcoal Grey,1597.26,15,Female,CASH,4,5
SRI2576,2024-05-23,Sodepur,Loafers,Burgundy,4218.82,5,Female,CASH,1,3
SRI3207,2023-08-01,Barrackpore,Wallet,Charcoal Grey,1109.05,7,Male,UPI,1,3
SRI5114,2024-01-07,Sodepur,Purse,Burgundy,4221.38,18,Male,EMI,4,4
SRI4264,2023-11-29,Howrah,Loafers,Burgundy,2953.33,30,Male,CREDIT CARD,1,4
SRI7826,2023-12-11,Ballygunj,Brouges,Burgundy,2342.51,6,Male,UPI,2,3
SRI7486,2024-04-08,Howrah,Oxford Shoes,Burgundy,2794.61,27,Male,CASH,2,3
SRI2393,2023-08-03,Howrah,Loafers,Dark Brown,2928.49,8,Female,CREDIT CARD,2,1
SRI3059,2023-10-26,Ballygunj,Belt,Burgundy,3836.16,8,Female,EMI,1,4
SRI5048,2023-09-03,Sodepur,Loafers,Dark Brown,1260.77,6,Male,UPI,2,5
SRI7259,2024-04-14,Ballygunj,Loafers,Charcoal Grey,3580.92,23,Female,CASH,1,3
SRI5270,2024-01-31,Sodepur,Oxford Shoes,Burgundy,1160.59,5,Female,UPI,5,2
SRI4772,2023-08-15,Sodepur,Brouges,Dark Brown,2183.41,10,Female,EMI,3,5
SRI7030,2023-12-07,Ballygunj,Belt,Charcoal Grey,1720.07,9,Female,UPI,5,4
SRI2455,2024-05-22,Barrackpore,Oxford Shoes,Charcoal Grey,3427.03,10,Male,UPI,3,4
SRI9169,2023-10-31,Howrah,Brouges,Black,1511.07,20,Female,CASH,2,4
SRI8938,2024-01-14,Howrah,Belt,Charcoal Grey,4586.08,15,Female,UPI,5,4
SRI1715,2023-07-05,Sodepur,Loafers,Dark Brown,892.53,20,Female,CASH,3,3
SRI8227,2023-08-20,Sodepur,Brouges,Burgundy,3364.19,19,Male,CASH,5,1
SRI3050,2024-06-21,Ballygunj,Wallet,Burgundy,1520.92,29,Male,CASH,2,1
SRI5946,2024-06-19,Howrah,Belt,Charcoal Grey,4277.45,10,Female,EMI,3,3
SRI2187,2023-07-12,Sodepur,Belt,Black,3273.56,5,Female,CASH,4,3
SRI6564,2023-10-23,Howrah,Belt,Dark Brown,2691.26,5,Female,CASH,2,2
SRI6596,2024-01-26,Barrackpore,Belt,Black,4229.41,28,Female,EMI,4,2
SRI9860,2023-11-08,Ballygunj,Wallet,Burgundy,2456.84,18,Female,CASH,5,4
SRI6554,2023-11-03,Sodepur,Oxford Shoes,Charcoal Grey,3562.3,14,Female,EMI,5,1
SRI6064,2023-07-25,Ballygunj,Purse,Charcoal Grey,633.12,28,Female,CREDIT CARD,4,2
SRI3860,2024-03-31,Barrackpore,Brouges,Burgundy,971.33,19,Female,CREDIT CARD,2,1
SRI2718,2023-12-06,Barrackpore,Loafers,Charcoal Grey,2146.29,27,Male,UPI,5,5
SRI2555,2024-02-28,Barrackpore,Brouges,Black,4854.96,6,Male,UPI,3,1
SRI4278,2023-07-17,Howrah,Purse,Dark Brown,3576.66,15,Female,EMI,3,3
SRI2711,2023-12-18,Howrah,Loafers,Burgundy,2796.22,26,Female,UPI,3,2
SRI4597,2024-02-24,Sodepur,Belt,Burgundy,2969.46,12,Male,EMI,5,4
SRI5099,2023-07-27,Ballygunj,Loafers,Charcoal Grey,2026.12,17,Male,CASH,1,1
SRI6926,2023-08-11,Ballygunj,Oxford Shoes,Dark Brown,617.02,21,Male,UPI,2,1
SRI4838,2023-12-18,Howrah,Brouges,Burgundy,3462.15,21,Female,UPI,5,1
SRI9910,2024-01-18,Ballygunj,Purse,Burgundy,3084.5,24,Male,CREDIT CARD,1,3
SRI7150,2023-11-25,Sodepur,Brouges,Burgundy,1229.17,22,Female,CREDIT CARD,3,3
SRI8418,2023-08-22,Ballygunj,Purse,Black,2054.35,21,Female,UPI,1,3
SRI3522,2024-06-01,Barrackpore,Brouges,Charcoal Grey,2107.92,16,Female,CASH,1,4
SRI5350,2023-08-17,Sodepur,Belt,Charcoal Grey,2669.05,27,Male,EMI,1,4
SRI6320,2024-02-09,Howrah,Belt,Burgundy,4095.35,24,Female,CASH,5,2
SRI4107,2023-11-12,Barrackpore,Belt,Burgundy,1038.91,18,Male,UPI,5,5
SRI1684,2024-01-07,Barrackpore,Oxford Shoes,Dark Brown,1521.79,18,Female,EMI,2,5
SRI2944,2023-08-16,Howrah,Loafers,Burgundy,683.4,27,Male,CREDIT CARD,1,5
SRI5850,2023-10-23,Sodepur,Brouges,Dark Brown,1278.16,5,Male,CASH,5,4
SRI9134,2024-06-17,Ballygunj,Oxford Shoes,Dark Brown,4902.29,10,Female,EMI,3,4
SRI2306,2023-10-20,Howrah,Brouges,Dark Brown,2668.74,9,Female,UPI,5,4
SRI4912,2024-02-27,Barrackpore,Oxford Shoes,Charcoal Grey,781.87,15,Female,CREDIT CARD,2,4
SRI6907,2024-05-06,Ballygunj,Purse,Black,3362.2,24,Male,CASH,1,2
SRI1809,2024-02-19,Barrackpore,Oxford Shoes,Burgundy,3473.49,26,Male,UPI,3,3
SRI2200,2023-10-29,Ballygunj,Wallet,Burgundy,1852.9,23,Male,CASH,4,2
SRI4027,2023-07-09,Howrah,Belt,Black,3583.68,28,Female,UPI,5,1
SRI9023,2023-07-25,Howrah,Loafers,Dark Brown,2614.23,30,Male,CASH,2,1
SRI9885,2023-09-06,Sodepur,Wallet,Burgundy,1232.58,16,Female,UPI,3,3
SRI8901,2024-05-13,Sodepur,Wallet,Black,4470.48,7,Female,EMI,4,1
SRI5611,2023-09-28,Sodepur,Brouges,Black,2147.98,7,Female,EMI,2,1
SRI3599,2024-03-31,Howrah,Purse,Dark Brown,1506.43,29,Female,EMI,3,3
SRI8675,2024-03-28,Barrackpore,Wallet,Black,2520.54,5,Male,CREDIT CARD,5,4
SRI8350,2024-02-20,Howrah,Wallet,Charcoal Grey,3315.77,24,Male,CASH,1,2
SRI4824,2023-07-15,Howrah,Purse,Burgundy,2749.17,18,Male,CASH,4,4
SRI8471,2023-08-05,Howrah,Belt,Charcoal Grey,3973.63,16,Male,UPI,1,1
SRI7044,2023-08-01,Sodepur,Belt,Burgundy,4056.63,14,Female,CASH,5,4
SRI3924,2023-07-12,Sodepur,Loafers,Dark Brown,1689.01,30,Female,CREDIT CARD,5,3
SRI5638,2024-06-14,Barrackpore,Purse,Black,3812.75,28,Male,UPI,2,3
SRI3105,2024-01-04,Ballygunj,Loafers,Dark Brown,4506.47,13,Male,CASH,2,1
SRI3665,2024-04-14,Ballygunj,Loafers,Dark Brown,2076.98,28,Male,EMI,4,2
SRI5922,2023-10-25,Howrah,Loafers,Charcoal Grey,1878.94,12,Female,CASH,1,2
SRI3567,2024-05-23,Sodepur,Belt,Dark Brown,4642.45,27,Female,UPI,3,4
SRI3425,2023-12-21,Barrackpore,Belt,Burgundy,617.96,12,Female,UPI,2,4
SRI8591,2024-02-02,Barrackpore,Wallet,Charcoal Grey,4747.87,16,Male,UPI,1,2
SRI6590,2023-09-24,Barrackpore,Loafers,Charcoal Grey,1376.75,29,Female,EMI,4,3
SRI6982,2024-06-19,Barrackpore,Wallet,Dark Brown,3976.5,13,Female,CASH,3,2
SRI4183,2023-10-30,Sodepur,Brouges,Dark Brown,4758.07,5,Female,CREDIT CARD,2,2
SRI9621,2023-07-31,Barrackpore,Belt,Dark Brown,532.87,9,Male,CASH,1,4
SRI4676,2023-12-16,Barrackpore,Purse,Burgundy,2114.24,12,Female,CASH,3,4
SRI6661,2024-01-28,Sodepur,Loafers,Dark Brown,3046.37,21,Male,CASH,4,3
SRI3603,2023-08-18,Ballygunj,Oxford Shoes,Black,1704.99,26,Female,UPI,4,4
SRI3158,2023-08-26,Sodepur,Belt,Charcoal Grey,2787.09,15,Male,EMI,4,3
SRI1182,2023-09-25,Barrackpore,Oxford Shoes,Charcoal Grey,4499.65,9,Male,CREDIT CARD,1,5
SRI5461,2023-08-20,Barrackpore,Brouges,Burgundy,4043.29,10,Female,EMI,2,2
SRI5514,2023-11-05,Ballygunj,Purse,Black,3581.7,19,Female,EMI,5,3
SRI1063,2024-05-04,Barrackpore,Brouges,Black,3578.39,8,Male,CASH,4,5
SRI7606,2024-02-22,Howrah,Loafers,Black,1956.82,7,Male,CASH,4,1
SRI7932,2024-01-31,Sodepur,Brouges,Dark Brown,3991.95,5,Male,EMI,2,4
SRI8212,2024-06-16,Sodepur,Brouges,Charcoal Grey,3906.16,14,Female,CREDIT CARD,1,1
SRI2261,2023-07-21,Sodepur,Brouges,Burgundy,1489.77,12,Female,EMI,4,3
SRI8500,2024-01-31,Howrah,Wallet,Charcoal Grey,727.0,28,Male,CREDIT CARD,2,2
SRI4161,2024-04-20,Howrah,Belt,Burgundy,3099.32,20,Male,EMI,3,4
SRI8257,2024-05-05,Barrackpore,Brouges,Burgundy,4076.98,5,Female,EMI,3,2
SRI1251,2024-06-04,Ballygunj,Belt,Burgundy,1516.33,10,Male,CASH,2,1
SRI3832,2023-12-25,Barrackpore,Wallet,Burgundy,2119.81,15,Female,EMI,4,2
SRI2456,2023-10-25,Barrackpore,Loafers,Charcoal Grey,3734.52,23,Male,EMI,3,1
SRI7347,2023-07-23,Howrah,Oxford Shoes,Dark Brown,1932.71,8,Male,EMI,1,4
SRI1304,2023-11-12,Sodepur,Loafers,Charcoal Grey,4180.39,28,Male,CASH,5,5
SRI2150,2024-05-11,Howrah,Oxford Shoes,Black,1278.81,6,Male,UPI,2,4
SRI6943,2023-08-12,Ballygunj,Wallet,Black,643.73,27,Female,EMI,2,2
SRI3981,2024-06-26,Sodepur,Brouges,Burgundy,4776.67,25,Female,CREDIT CARD,4,2
SRI6690,2024-06-02,Sodepur,Purse,Burgundy,4195.77,15,Female,EMI,3,4
SRI4495,2023-09-11,Ballygunj,Brouges,Charcoal Grey,1150.02,28,Male,EMI,3,2
SRI2855,2024-03-04,Ballygunj,Belt,Charcoal Grey,2753.25,19,Female,CREDIT CARD,1,2
SRI1114,2024-03-21,Sodepur,Oxford Shoes,Charcoal Grey,3122.37,26,Male,CREDIT CARD,4,1
SRI9647,2024-02-15,Ballygunj,Belt,Dark Brown,3492.41,7,Female,EMI,4,5
SRI2483,2024-03-31,Howrah,Brouges,Dark Brown,983.95,28,Female,EMI,4,4
SRI2097,2023-11-03,Sodepur,Loafers,Dark Brown,881.61,29,Male,EMI,4,2
SRI8614,2024-06-26,Ballygunj,Wallet,Dark Brown,2590.87,25,Male,UPI,1,2
SRI1138,2023-10-26,Ballygunj,Wallet,Dark Brown,1796.05,24,Male,EMI,4,4
SRI1085,2024-01-20,Barrackpore,Brouges,Dark Brown,3138.22,9,Female,UPI,5,3
SRI1615,2023-07-01,Barrackpore,Oxford Shoes,Dark Brown,1704.2,9,Female,CREDIT CARD,2,4
SRI8985,2023-10-16,Sodepur,Oxford Shoes,Dark Brown,4330.55,17,Male,EMI,3,1
SRI2411,2023-10-28,Barrackpore,Belt,Black,2427.98,25,Female,CREDIT CARD,1,4
SRI1712,2023-07-09,Ballygunj,Belt,Black,2614.95,13,Female,EMI,5,3
SRI8814,2024-02-20,Barrackpore,Loafers,Black,3513.67,17,Female,CREDIT CARD,3,3
SRI1881,2024-04-16,Barrackpore,Wallet,Dark Brown,4111.43,28,Female,CREDIT CARD,2,3
SRI2980,2024-05-09,Sodepur,Wallet,Black,2554.38,14,Female,EMI,4,5
SRI2535,2024-03-28,Howrah,Wallet,Burgundy,2937.16,12,Female,EMI,2,1
SRI3588,2024-06-11,Ballygunj,Wallet,Burgundy,922.29,20,Male,CREDIT CARD,1,4
SRI2710,2024-02-13,Howrah,Loafers,Dark Brown,3572.52,24,Female,UPI,2,1
SRI7166,2024-02-26,Barrackpore,Loafers,Charcoal Grey,3924.45,10,Female,EMI,2,4
SRI5908,2023-09-13,Howrah,Oxford Shoes,Black,3390.36,27,Male,EMI,1,4
SRI8892,2023-07-14,Ballygunj,Purse,Dark Brown,1737.13,23,Male,EMI,3,3
SRI2856,2023-07-16,Sodepur,Brouges,Burgundy,1248.52,15,Male,UPI,5,2
SRI1762,2023-06-28,Howrah,Oxford Shoes,Black,4133.47,15,Female,CASH,5,2
SRI5082,2024-05-04,Sodepur,Loafers,Black,3178.84,24,Male,UPI,5,3
SRI2525,2024-03-27,Barrackpore,Oxford Shoes,Charcoal Grey,2066.05,19,Male,EMI,4,2
SRI3478,2023-10-08,Sodepur,Oxford Shoes,Black,2317.3,24,Female,CREDIT CARD,2,4
SRI6996,2023-07-03,Barrackpore,Loafers,Black,569.36,22,Male,CASH,2,2
SRI3278,2024-02-09,Barrackpore,Brouges,Black,1677.24,29,Female,EMI,3,4
SRI7951,2024-03-08,Howrah,Belt,Black,2927.01,8,Male,CASH,5,4
SRI4591,2024-02-03,Barrackpore,Purse,Black,3856.59,10,Female,CREDIT CARD,2,3
SRI4165,2023-09-01,Ballygunj,Wallet,Dark Brown,4170.07,26,Male,EMI,4,4
SRI8088,2024-01-26,Howrah,Oxford Shoes,Burgundy,4789.52,23,Female,CREDIT CARD,4,4
SRI2720,2024-06-13,Barrackpore,Wallet,Black,1210.88,23,Female,CASH,1,5
SRI1595,2024-05-04,Ballygunj,Purse,Charcoal Grey,1700.06,13,Male,UPI,3,4
SRI5293,2023-07-26,Ballygunj,Loafers,Charcoal Grey,4151.01,13,Male,UPI,5,3
SRI4437,2024-04-04,Sodepur,Wallet,Black,620.25,27,Female,CASH,5,1
SRI2109,2023-10-19,Barrackpore,Brouges,Charcoal Grey,2119.2,5,Female,CREDIT CARD,5,4
SRI5693,2023-10-03,Barrackpore,Loafers,Burgundy,2770.14,20,Male,CREDIT CARD,2,3
SRI6302,2023-10-04,Howrah,Belt,Burgundy,2745.83,29,Male,UPI,3,1
SRI1662,2024-05-07,Ballygunj,Oxford Shoes,Charcoal Grey,4578.17,15,Female,EMI,2,1
SRI7906,2023-09-27,Howrah,Oxford Shoes,Dark Brown,3602.75,11,Female,CASH,3,3
SRI9015,2024-01-26,Sodepur,Purse,Charcoal Grey,857.65,13,Female,CASH,4,5
SRI8188,2023-10-02,Ballygunj,Loafers,Charcoal Grey,1150.1,15,Female,UPI,2,1
SRI3599,2024-02-19,Howrah,Loafers,Burgundy,1086.64,17,Female,UPI,3,3
SRI1953,2023-10-27,Ballygunj,Brouges,Dark Brown,1055.85,22,Male,UPI,2,5
SRI3722,2024-01-05,Howrah,Wallet,Black,2289.33,13,Female,EMI,1,4
SRI5976,2024-02-12,Barrackpore,Loafers,Burgundy,2613.79,16,Female,CASH,2,3
SRI5890,2024-02-24,Ballygunj,Brouges,Black,4743.87,18,Male,UPI,3,3
SRI9825,2024-02-04,Barrackpore,Oxford Shoes,Burgundy,1898.23,17,Female,CASH,4,3
SRI3092,2024-01-25,Howrah,Oxford Shoes,Black,4648.18,23,Female,CASH,5,2
SRI6768,2023-10-07,Sodepur,Purse,Dark Brown,4925.49,25,Female,CREDIT CARD,5,1
SRI9198,2023-08-30,Barrackpore,Wallet,Burgundy,2295.18,29,Male,UPI,4,3
SRI6881,2023-09-22,Barrackpore,Purse,Dark Brown,3746.59,28,Female,EMI,2,1
SRI2299,2024-03-23,Sodepur,Belt,Black,1481.61,24,Female,EMI,5,1
SRI7465,2023-10-25,Barrackpore,Purse,Dark Brown,1929.11,29,Male,EMI,1,3
SRI5897,2024-02-24,Ballygunj,Purse,Charcoal Grey,2907.84,24,Female,UPI,5,5
SRI2586,2024-03-23,Sodepur,Purse,Burgundy,4601.46,7,Female,UPI,5,3
SRI5054,2024-05-02,Sodepur,Brouges,Charcoal Grey,1693.67,15,Male,CREDIT CARD,5,1
SRI8617,2024-02-26,Howrah,Brouges,Burgundy,3001.33,9,Male,CREDIT CARD,3,4
SRI5054,2024-04-04,Barrackpore,Belt,Charcoal Grey,2499.61,25,Male,UPI,5,3
SRI4634,2023-08-26,Barrackpore,Loafers,Dark Brown,1059.02,7,Female,EMI,5,2
SRI2668,2023-11-21,Ballygunj,Oxford Shoes,Dark Brown,806.63,12,Male,UPI,1,1
SRI9543,2023-07-03,Howrah,Purse,Black,931.08,11,Female,CREDIT CARD,1,4
SRI4633,2024-05-17,Sodepur,Loafers,Burgundy,4691.21,9,Female,CREDIT CARD,2,4
SRI1376,2024-04-24,Ballygunj,Belt,Burgundy,941.77,7,Male,UPI,4,3
SRI8546,2024-03-11,Barrackpore,Loafers,Dark Brown,3887.27,7,Male,CASH,1,4
SRI1394,2023-10-01,Sodepur,Loafers,Dark Brown,4259.73,16,Female,CASH,4,1
SRI6829,2023-12-31,Sodepur,Purse,Charcoal Grey,3892.07,12,Male,CREDIT CARD,1,4
SRI7086,2023-11-02,Ballygunj,Loafers,Burgundy,4307.95,21,Female,CREDIT CARD,3,1
SRI2712,2024-03-06,Sodepur,Belt,Charcoal Grey,999.72,17,Female,EMI,5,5
SRI4698,2023-11-09,Sodepur,Brouges,Charcoal Grey,2282.76,8,Male,CASH,2,3
SRI3639,2023-07-25,Barrackpore,Loafers,Charcoal Grey,2500.47,9,Female,CASH,1,1
SRI3679,2024-02-12,Howrah,Wallet,Charcoal Grey,1506.68,24,Female,CASH,2,5
SRI5900,2024-01-27,Howrah,Loafers,Black,4437.95,9,Male,UPI,3,1
SRI3535,2023-07-11,Ballygunj,Purse,Burgundy,4328.07,8,Female,CASH,5,2
SRI6817,2024-05-24,Barrackpore,Wallet,Black,789.61,18,Male,CASH,5,4
SRI6375,2023-12-16,Ballygunj,Loafers,Burgundy,4505.21,15,Male,CREDIT CARD,1,3
SRI2769,2023-10-05,Sodepur,Loafers,Burgundy,944.28,23,Female,CREDIT CARD,1,4
SRI8335,2024-05-30,Barrackpore,Belt,Charcoal Grey,1564.56,16,Female,UPI,5,5
SRI1497,2024-02-29,Ballygunj,Belt,Black,1456.75,25,Female,CASH,3,4
SRI2951,2023-08-15,Ballygunj,Purse,Black,4510.79,26,Male,CREDIT CARD,2,1
SRI6545,2023-11-03,Howrah,Oxford Shoes,Black,3898.27,19,Female,CASH,1,3
SRI4436,2024-05-15,Sodepur,Purse,Black,2389.7,6,Female,CASH,3,2
SRI3906,2024-04-04,Barrackpore,Loafers,Dark Brown,4997.66,5,Male,UPI,3,5
SRI1906,2023-11-24,Barrackpore,Oxford Shoes,Dark Brown,2692.22,18,Male,CASH,5,4
SRI7876,2023-08-07,Howrah,Wallet,Black,4835.23,16,Female,EMI,5,3
SRI4782,2023-12-16,Barrackpore,Purse,Charcoal Grey,2047.26,20,Male,CREDIT CARD,4,3
SRI6419,2024-05-03,Ballygunj,Wallet,Dark Brown,1688.4,9,Female,CASH,5,2
SRI8521,2024-01-05,Ballygunj,Wallet,Burgundy,4817.42,12,Male,CREDIT CARD,2,3
SRI4698,2024-05-08,Ballygunj,Loafers,Dark Brown,2243.06,26,Male,UPI,4,3
SRI4449,2023-11-13,Howrah,Oxford Shoes,Black,4647.49,13,Female,CASH,5,3
SRI5871,2023-07-26,Sodepur,Loafers,Black,1977.29,26,Female,CREDIT CARD,1,4
SRI7817,2024-05-09,Barrackpore,Belt,Burgundy,4821.9,5,Female,EMI,4,4
SRI3770,2024-01-06,Ballygunj,Wallet,Dark Brown,2211.28,16,Female,UPI,3,2
SRI6810,2024-02-20,Sodepur,Purse,Burgundy,3824.97,21,Male,EMI,2,2
SRI9984,2023-07-13,Sodepur,Oxford Shoes,Charcoal Grey,2166.33,10,Male,CREDIT CARD,5,4
SRI2269,2023-07-11,Sodepur,Brouges,Black,1298.98,17,Female,CASH,4,5
SRI7127,2024-04-28,Sodepur,Wallet,Black,4737.1,9,Male,EMI,3,4
SRI4740,2024-05-02,Ballygunj,Wallet,Dark Brown,4375.36,18,Female,CASH,3,2
SRI1555,2023-09-15,Howrah,Loafers,Dark Brown,2549.42,30,Female,CASH,5,4
SRI8850,2023-11-21,Sodepur,Purse,Charcoal Grey,4644.81,20,Female,EMI,4,2
SRI7783,2024-03-13,Sodepur,Brouges,Burgundy,4490.62,9,Female,EMI,2,5
SRI7391,2024-01-27,Sodepur,Brouges,Dark Brown,2295.4,26,Male,CREDIT CARD,1,5
SRI9150,2024-04-13,Sodepur,Wallet,Black,2109.92,17,Female,CREDIT CARD,5,2
SRI3631,2024-02-15,Barrackpore,Purse,Burgundy,4947.25,18,Female,UPI,2,3
SRI9925,2023-06-30,Ballygunj,Wallet,Black,2525.8,20,Female,CASH,4,1
SRI4684,2023-10-18,Barrackpore,Purse,Black,4171.83,29,Male,CREDIT CARD,1,3
SRI2103,2023-07-13,Ballygunj,Belt,Dark Brown,2625.48,25,Male,UPI,5,5
SRI1001,2024-04-06,Howrah,Oxford Shoes,Dark Brown,2660.98,14,Female,CREDIT CARD,1,5
SRI1944,2024-04-28,Sodepur,Oxford Shoes,Charcoal Grey,1588.96,9,Female,UPI,1,1
SRI8997,2024-02-04,Sodepur,Loafers,Charcoal Grey,1344.84,24,Male,CASH,5,1
SRI5363,2024-05-16,Barrackpore,Belt,Dark Brown,2325.29,23,Female,UPI,5,4
SRI3030,2024-02-23,Ballygunj,Purse,Dark Brown,878.3,14,Female,UPI,2,2
SRI7237,2023-12-26,Howrah,Oxford Shoes,Burgundy,4033.84,25,Female,EMI,3,5
SRI9160,2023-09-01,Ballygunj,Brouges,Dark Brown,4170.96,29,Male,CREDIT CARD,3,1
SRI3770,2024-02-20,Howrah,Loafers,Dark Brown,4620.82,25,Female,CASH,1,4
SRI1275,2023-10-03,Sodepur,Wallet,Charcoal Grey,4768.53,8,Female,CASH,4,1
SRI4585,2023-11-05,Ballygunj,Belt,Charcoal Grey,3501.41,12,Female,EMI,5,3
SRI1707,2023-10-08,Barrackpore,Brouges,Charcoal Grey,962.11,27,Female,UPI,4,3
SRI4417,2024-05-03,Sodepur,Loafers,Dark Brown,1993.9,24,Female,CREDIT CARD,5,1
SRI4165,2023-12-14,Sodepur,Oxford Shoes,Black,3359.47,21,Female,UPI,2,3
SRI6060,2024-06-14,Sodepur,Brouges,Dark Brown,4413.44,24,Male,UPI,3,2
SRI1709,2023-11-06,Ballygunj,Belt,Dark Brown,3877.44,23,Male,CREDIT CARD,5,5
SRI2722,2023-08-05,Ballygunj,Purse,Black,2662.4,10,Male,CREDIT CARD,3,3
SRI1130,2023-09-13,Ballygunj,Brouges,Burgundy,2469.95,7,Male,CASH,5,1
SRI4567,2023-07-14,Howrah,Loafers,Dark Brown,4752.1,28,Male,EMI,5,2
SRI7356,2024-02-21,Barrackpore,Wallet,Black,1808.05,12,Female,EMI,2,5
SRI6942,2023-12-27,Ballygunj,Belt,Charcoal Grey,2089.01,17,Female,CREDIT CARD,5,3
SRI1722,2023-07-20,Ballygunj,Belt,Burgundy,1550.12,13,Female,EMI,4,1
SRI1656,2024-04-06,Howrah,Brouges,Burgundy,3140.07,20,Female,CREDIT CARD,1,4
SRI5289,2023-11-03,Sodepur,Oxford Shoes,Dark Brown,3965.41,24,Female,CREDIT CARD,5,2
SRI9835,2023-07-07,Ballygunj,Belt,Burgundy,1389.16,29,Female,CASH,4,1
SRI4235,2023-12-13,Sodepur,Belt,Black,3072.64,25,Female,UPI,2,3
SRI1591,2024-01-15,Howrah,Loafers,Charcoal Grey,2211.12,29,Male,UPI,5,5
SRI3925,2024-01-01,Barrackpore,Purse,Black,3433.61,7,Female,UPI,2,1
SRI6121,2023-08-06,Sodepur,Oxford Shoes,Charcoal Grey,1016.24,25,Male,UPI,5,3
SRI3291,2024-06-22,Howrah,Loafers,Black,966.43,11,Male,EMI,1,5
SRI3113,2024-04-02,Ballygunj,Wallet,Charcoal Grey,4191.78,18,Male,UPI,5,4
SRI2699,2024-01-20,Howrah,Wallet,Dark Brown,1260.83,6,Female,EMI,3,2
SRI9199,2023-09-23,Barrackpore,Belt,Charcoal Grey,4214.17,9,Female,EMI,1,2
SRI6425,2023-09-23,Howrah,Wallet,Black,3977.4,27,Female,CASH,2,1
SRI4181,2023-10-18,Ballygunj,Purse,Charcoal Grey,558.24,13,Male,UPI,3,5
SRI8559,2024-01-23,Ballygunj,Purse,Dark Brown,1930.35,25,Female,UPI,2,4
SRI4540,2023-10-06,Ballygunj,Belt,Burgundy,1196.72,21,Male,CREDIT CARD,2,5
SRI2206,2024-06-22,Howrah,Wallet,Charcoal Grey,4311.34,8,Male,UPI,5,2
SRI9326,2023-11-03,Ballygunj,Belt,Dark Brown,899.91,13,Male,EMI,3,2
SRI2147,2023-06-29,Ballygunj,Loafers,Burgundy,1683.48,5,Male,EMI,1,4
SRI6230,2024-06-05,Sodepur,Brouges,Dark Brown,3726.45,28,Male,EMI,5,2
SRI8628,2024-04-10,Sodepur,Wallet,Burgundy,3963.36,8,Male,CREDIT CARD,4,4
SRI6314,2023-08-30,Barrackpore,Belt,Burgundy,3110.3,12,Female,CASH,1,5
SRI9581,2023-07-22,Ballygunj,Purse,Burgundy,1657.69,18,Female,EMI,2,3
SRI6601,2024-02-04,Ballygunj,Wallet,Charcoal Grey,2035.75,9,Male,UPI,1,2
SRI9720,2024-05-23,Ballygunj,Wallet,Charcoal Grey,1234.1,10,Male,UPI,2,2
SRI1911,2023-12-19,Barrackpore,Wallet,Black,3777.82,16,Female,CASH,2,5
SRI7514,2024-04-12,Howrah,Loafers,Charcoal Grey,2127.38,13,Female,EMI,1,3
SRI7609,2024-06-07,Barrackpore,Brouges,Burgundy,2961.43,23,Male,CREDIT CARD,5,2
SRI9724,2023-12-18,Barrackpore,Loafers,Charcoal Grey,951.54,15,Male,UPI,4,3
SRI3926,2024-03-25,Ballygunj,Purse,Black,1828.85,25,Female,UPI,1,3
SRI3688,2024-06-15,Ballygunj,Purse,Dark Brown,1609.49,20,Female,CREDIT CARD,1,2
SRI9268,2024-02-02,Ballygunj,Wallet,Dark Brown,746.52,30,Female,UPI,1,3
SRI4121,2023-12-13,Sodepur,Brouges,Burgundy,2938.53,26,Male,CREDIT CARD,2,3
SRI5531,2023-10-16,Barrackpore,Loafers,Burgundy,1347.22,20,Female,UPI,4,5
SRI1485,2023-11-05,Barrackpore,Purse,Dark Brown,2019.61,21,Female,CASH,3,1
SRI8740,2024-02-13,Barrackpore,Belt,Black,2388.04,23,Female,EMI,2,2
SRI1056,2023-09-11,Sodepur,Belt,Charcoal Grey,2854.57,26,Male,EMI,3,1
SRI5545,2024-06-18,Sodepur,Wallet,Dark Brown,4820.72,11,Female,UPI,1,5
SRI1692,2024-03-31,Sodepur,Wallet,Charcoal Grey,2934.13,16,Female,UPI,1,1
SRI2644,2023-10-08,Barrackpore,Purse,Burgundy,1056.63,25,Female,CREDIT CARD,5,5
SRI2705,2023-09-28,Barrackpore,Belt,Dark Brown,514.84,29,Female,EMI,4,4
SRI8415,2023-09-16,Sodepur,Brouges,Charcoal Grey,561.35,5,Male,CREDIT CARD,4,5
SRI4199,2023-07-16,Howrah,Wallet,Dark Brown,869.96,8,Female,UPI,1,5
SRI5907,2024-06-04,Sodepur,Belt,Burgundy,3943.86,21,Female,CREDIT CARD,3,2
SRI6533,2024-02-16,Barrackpore,Purse,Dark Brown,2208.27,10,Female,CASH,4,1
SRI7281,2023-11-06,Sodepur,Wallet,Black,2648.0,16,Male,UPI,5,3
SRI9902,2023-08-19,Ballygunj,Purse,Black,1327.99,21,Male,UPI,2,1
SRI8447,2024-05-22,Sodepur,Loafers,Burgundy,3585.11,21,Male,EMI,1,4
SRI6750,2024-04-27,Ballygunj,Wallet,Dark Brown,3511.95,21,Female,CREDIT CARD,4,4
SRI2533,2023-10-10,Sodepur,Loafers,Black,4653.8,15,Male,CASH,3,4
SRI6031,2024-03-31,Ballygunj,Belt,Burgundy,2820.76,6,Male,CREDIT CARD,1,4
SRI3271,2024-03-10,Ballygunj,Belt,Dark Brown,2275.69,8,Male,CASH,4,3
SRI2884,2023-10-13,Barrackpore,Loafers,Black,2316.99,23,Female,UPI,4,1
SRI5992,2024-01-29,Ballygunj,Purse,Dark Brown,3474.53,10,Female,EMI,5,1
SRI7983,2024-04-14,Barrackpore,Wallet,Burgundy,2313.76,15,Female,EMI,4,4
SRI1792,2024-05-24,Howrah,Oxford Shoes,Burgundy,4101.54,13,Female,UPI,4,1
SRI6827,2023-10-07,Sodepur,Belt,Burgundy,4046.34,20,Female,EMI,5,3
SRI5127,2023-12-18,Barrackpore,Purse,Dark Brown,1128.81,8,Male,CASH,2,3
SRI8946,2023-10-15,Barrackpore,Loafers,Black,2463.18,26,Female,UPI,1,4
SRI2628,2024-01-19,Ballygunj,Wallet,Charcoal Grey,4293.05,29,Female,EMI,2,2
SRI1515,2024-05-25,Barrackpore,Purse,Burgundy,2982.92,14,Male,CASH,5,1
SRI9984,2024-02-14,Sodepur,Brouges,Black,748.04,25,Female,UPI,4,3
SRI1864,2023-08-29,Howrah,Oxford Shoes,Burgundy,1202.9,21,Male,UPI,1,5
SRI4911,2023-06-30,Ballygunj,Oxford Shoes,Dark Brown,1992.51,21,Female,CASH,1,5
SRI9720,2023-07-02,Barrackpore,Loafers,Dark Brown,964.48,29,Female,CREDIT CARD,3,4
SRI4843,2024-06-03,Sodepur,Loafers,Burgundy,3945.85,24,Male,EMI,1,2
SRI4375,2023-10-12,Howrah,Brouges,Black,4884.0,7,Male,CASH,3,2
SRI3401,2024-04-22,Barrackpore,Belt,Burgundy,2307.49,25,Male,CASH,3,4
SRI6171,2023-12-28,Barrackpore,Wallet,Dark Brown,3310.44,26,Female,CREDIT CARD,2,1
SRI4287,2024-05-31,Sodepur,Belt,Charcoal Grey,4583.02,28,Male,CREDIT CARD,2,5
SRI6040,2024-03-08,Sodepur,Belt,Charcoal Grey,2825.03,19,Female,CREDIT CARD,5,3
SRI2238,2024-05-22,Barrackpore,Oxford Shoes,Charcoal Grey,2643.41,23,Female,CREDIT CARD,4,1
SRI5782,2023-10-11,Barrackpore,Wallet,Dark Brown,4873.33,23,Female,UPI,4,4
SRI1168,2024-01-08,Barrackpore,Oxford Shoes,Charcoal Grey,4557.41,26,Female,EMI,1,5
SRI6895,2023-12-06,Barrackpore,Oxford Shoes,Black,851.94,20,Female,UPI,4,4
SRI3151,2023-09-20,Ballygunj,Loafers,Dark Brown,567.41,14,Male,EMI,3,4
SRI4804,2023-08-31,Sodepur,Purse,Black,756.61,26,Male,EMI,1,1
SRI8741,2024-05-17,Barrackpore,Purse,Burgundy,4421.05,19,Female,UPI,5,1
SRI1165,2024-01-10,Barrackpore,Purse,Charcoal Grey,1411.95,25,Female,CREDIT CARD,3,5
SRI1535,2023-09-02,Ballygunj,Brouges,Dark Brown,4492.63,16,Male,UPI,4,3
SRI2394,2024-04-27,Barrackpore,Belt,Burgundy,3797.04,6,Female,CASH,3,5
SRI2850,2023-11-15,Barrackpore,Brouges,Dark Brown,3820.51,16,Female,CREDIT CARD,3,3
SRI9196,2023-11-20,Ballygunj,Oxford Shoes,Black,2864.93,21,Male,CREDIT CARD,4,4
SRI8070,2023-12-30,Howrah,Purse,Dark Brown,2722.17,28,Female,CASH,5,4
SRI3931,2024-02-17,Sodepur,Oxford Shoes,Black,1224.09,11,Female,CASH,5,4
SRI4240,2023-11-30,Ballygunj,Oxford Shoes,Black,516.2,30,Male,UPI,2,2
SRI4156,2024-05-25,Ballygunj,Brouges,Dark Brown,1291.3,27,Male,CASH,1,2
SRI5470,2023-08-07,Barrackpore,Brouges,Dark Brown,2844.32,19,Male,CASH,1,3
SRI8958,2023-07-21,Howrah,Purse,Dark Brown,534.18,22,Female,CREDIT CARD,4,2
SRI5797,2023-10-09,Howrah,Belt,Burgundy,1294.79,21,Female,UPI,2,1
SRI7155,2023-08-21,Sodepur,Belt,Dark Brown,901.33,14,Female,UPI,3,2
SRI2273,2024-06-10,Sodepur,Loafers,Charcoal Grey,2846.39,22,Female,UPI,1,5
SRI7447,2024-03-04,Ballygunj,Belt,Dark Brown,4038.17,9,Male,EMI,2,1
SRI5489,2023-10-14,Ballygunj,Loafers,Burgundy,1304.43,13,Female,EMI,3,3
SRI6204,2024-03-05,Ballygunj,Belt,Black,2591.86,18,Male,CREDIT CARD,5,1
SRI5830,2023-07-23,Sodepur,Wallet,Charcoal Grey,2686.6,5,Female,CASH,4,4
SRI7472,2023-10-07,Sodepur,Brouges,Burgundy,3360.74,10,Female,UPI,1,4
SRI1902,2023-11-21,Howrah,Belt,Black,2050.62,14,Male,EMI,4,3
SRI3196,2024-03-08,Barrackpore,Belt,Dark Brown,3526.41,26,Female,CREDIT CARD,1,1
SRI9941,2023-08-23,Sodepur,Loafers,Black,1152.26,7,Female,EMI,4,2
SRI8674,2024-03-02,Ballygunj,Loafers,Burgundy,4988.85,11,Female,CREDIT CARD,4,2
SRI5652,2024-05-22,Ballygunj,Oxford Shoes,Black,1225.36,14,Male,UPI,5,3
SRI9640,2023-08-26,Howrah,Loafers,Dark Brown,1531.95,7,Female,CREDIT CARD,3,5
SRI3892,2023-10-10,Howrah,Brouges,Black,2811.78,21,Male,EMI,1,4
SRI3788,2024-05-11,Barrackpore,Oxford Shoes,Burgundy,3605.44,20,Male,CASH,5,4
SRI1854,2024-06-10,Sodepur,Loafers,Black,4764.92,9,Male,CASH,4,4
SRI6130,2023-08-25,Ballygunj,Purse,Charcoal Grey,3510.43,17,Female,UPI,3,5
SRI9184,2023-10-10,Barrackpore,Purse,Black,1276.53,13,Female,UPI,1,5
SRI5121,2023-10-23,Barrackpore,Loafers,Dark Brown,1523.56,13,Male,CASH,2,4
SRI9738,2023-09-26,Ballygunj,Loafers,Charcoal Grey,2192.49,7,Male,UPI,3,4
SRI3912,2024-05-04,Barrackpore,Oxford Shoes,Black,2828.39,12,Male,CASH,5,4
SRI6250,2023-10-21,Howrah,Brouges,Black,861.81,21,Female,EMI,1,3
SRI4849,2023-07-29,Sodepur,Belt,Dark Brown,3792.15,27,Female,CREDIT CARD,2,3
SRI4640,2024-05-10,Sodepur,Wallet,Dark Brown,4064.48,22,Female,CASH,4,3
SRI7558,2024-05-23,Ballygunj,Brouges,Charcoal Grey,2473.59,30,Female,UPI,2,3
SRI8537,2023-07-02,Ballygunj,Oxford Shoes,Charcoal Grey,3934.69,12,Female,EMI,2,1
SRI1106,2023-11-09,Ballygunj,Brouges,Black,3009.51,26,Male,CASH,2,5
SRI5740,2023-07-28,Ballygunj,Loafers,Charcoal Grey,3979.42,27,Female,CASH,3,2
SRI6536,2023-08-24,Ballygunj,Loafers,Dark Brown,1531.6,13,Female,CREDIT CARD,5,3
SRI8901,2023-09-11,Howrah,Belt,Charcoal Grey,671.06,7,Male,CASH,4,5
SRI6841,2023-11-03,Howrah,Belt,Black,4762.23,19,Female,CREDIT CARD,3,4
SRI5898,2024-01-16,Howrah,Brouges,Dark Brown,1078.1,29,Male,CREDIT CARD,3,1
SRI7995,2024-02-14,Ballygunj,Loafers,Burgundy,3700.47,14,Male,UPI,3,4
SRI2162,2024-05-17,Barrackpore,Loafers,Burgundy,1529.78,14,Female,EMI,4,1
SRI4621,2023-12-12,Sodepur,Oxford Shoes,Burgundy,1124.25,29,Male,UPI,4,3
SRI6940,2024-03-04,Sodepur,Belt,Black,3528.03,25,Male,CREDIT CARD,5,1
SRI1481,2024-05-07,Ballygunj,Loafers,Burgundy,4180.24,29,Female,CASH,3,4
SRI9137,2023-10-08,Sodepur,Loafers,Black,3125.16,27,Female,UPI,3,1
SRI6218,2023-11-25,Barrackpore,Purse,Charcoal Grey,3080.21,9,Male,UPI,3,3
SRI8976,2023-08-18,Howrah,Loafers,Black,2525.11,30,Male,CASH,4,1
SRI7907,2024-01-26,Barrackpore,Wallet,Burgundy,3544.64,9,Female,EMI,2,3
SRI3137,2024-06-19,Howrah,Brouges,Charcoal Grey,4604.88,13,Female,CASH,1,3
SRI1510,2024-01-25,Barrackpore,Belt,Charcoal Grey,2412.98,28,Male,EMI,4,5
SRI3754,2024-01-30,Howrah,Wallet,Dark Brown,1860.75,9,Female,CREDIT CARD,3,1
SRI5505,2023-12-30,Howrah,Loafers,Charcoal Grey,1111.46,28,Male,CASH,1,4
SRI6462,2024-04-07,Barrackpore,Belt,Burgundy,3323.76,23,Female,EMI,2,5
SRI2334,2024-05-10,Ballygunj,Oxford Shoes,Black,4451.2,22,Male,UPI,2,4
SRI8661,2023-11-01,Ballygunj,Wallet,Charcoal Grey,3469.23,24,Female,CASH,4,3
SRI5346,2023-07-21,Ballygunj,Belt,Burgundy,2664.91,12,Male,CREDIT CARD,1,4
SRI7340,2024-06-07,Ballygunj,Brouges,Dark Brown,2990.71,19,Female,UPI,5,5
SRI1280,2024-05-28,Ballygunj,Brouges,Burgundy,1644.85,23,Female,UPI,2,4
SRI8740,2023-09-20,Barrackpore,Loafers,Burgundy,1493.0,16,Male,UPI,3,2
SRI4058,2023-11-05,Barrackpore,Wallet,Burgundy,4991.15,19,Female,CASH,3,2
SRI8982,2024-04-24,Sodepur,Belt,Dark Brown,2827.71,29,Male,UPI,1,5
SRI1580,2023-10-21,Barrackpore,Wallet,Black,3268.97,21,Male,UPI,4,3
SRI7102,2024-02-13,Ballygunj,Belt,Charcoal Grey,2040.71,19,Male,CREDIT CARD,5,5
SRI3058,2023-07-27,Ballygunj,Oxford Shoes,Charcoal Grey,2372.54,15,Male,EMI,2,2
SRI5921,2024-05-24,Sodepur,Oxford Shoes,Black,2752.93,10,Male,CASH,5,5
SRI6211,2024-06-19,Howrah,Loafers,Black,4496.21,17,Male,CASH,2,5
SRI5920,2023-09-14,Howrah,Purse,Charcoal Grey,3227.62,28,Male,EMI,4,2
SRI3532,2023-07-12,Ballygunj,Belt,Burgundy,2634.64,25,Female,EMI,3,2
SRI3035,2023-11-11,Howrah,Belt,Charcoal Grey,540.64,21,Female,EMI,5,3
SRI7016,2024-03-04,Howrah,Oxford Shoes,Charcoal Grey,2591.51,13,Male,CREDIT CARD,5,2
SRI5305,2023-07-29,Howrah,Brouges,Charcoal Grey,3419.7,13,Male,EMI,5,2
SRI9989,2023-12-27,Ballygunj,Purse,Dark Brown,2457.17,30,Female,CASH,1,4
SRI2303,2024-04-24,Barrackpore,Purse,Dark Brown,849.86,25,Female,CASH,3,2
SRI1605,2024-04-21,Sodepur,Brouges,Dark Brown,4273.09,16,Male,EMI,3,5
SRI7526,2024-02-23,Sodepur,Wallet,Dark Brown,2290.49,18,Female,EMI,2,3
SRI6749,2023-10-07,Ballygunj,Belt,Dark Brown,3048.96,13,Female,CASH,3,5
SRI6255,2023-07-02,Barrackpore,Purse,Burgundy,2153.15,19,Female,EMI,3,1
SRI4775,2024-02-20,Sodepur,Loafers,Burgundy,1326.99,8,Female,CASH,2,4
SRI7967,2024-01-10,Howrah,Wallet,Burgundy,935.3,27,Male,EMI,4,4
SRI2534,2024-05-05,Ballygunj,Oxford Shoes,Charcoal Grey,3591.0,21,Male,CREDIT CARD,1,4
SRI2666,2023-10-07,Sodepur,Oxford Shoes,Black,3741.52,13,Male,CREDIT CARD,2,5
SRI3514,2024-05-31,Barrackpore,Wallet,Burgundy,3908.99,6,Male,CASH,2,2
SRI9100,2024-05-01,Howrah,Purse,Charcoal Grey,2745.55,26,Male,CREDIT CARD,5,3
SRI1247,2023-09-02,Barrackpore,Oxford Shoes,Dark Brown,3056.13,25,Female,EMI,3,5
SRI3370,2024-02-02,Sodepur,Oxford Shoes,Dark Brown,552.94,10,Male,EMI,1,3
SRI1679,2023-08-28,Howrah,Oxford Shoes,Black,1102.66,9,Female,EMI,3,2
SRI9465,2024-03-15,Ballygunj,Belt,Dark Brown,4670.95,20,Female,CREDIT CARD,5,2
SRI3379,2023-07-20,Barrackpore,Brouges,Black,1837.58,13,Female,UPI,5,4
SRI1676,2023-10-09,Ballygunj,Brouges,Black,4187.37,8,Female,CASH,4,1
SRI8276,2024-05-24,Sodepur,Wallet,Dark Brown,3424.87,7,Female,UPI,5,5
SRI1774,2024-06-08,Barrackpore,Brouges,Dark Brown,1147.21,22,Female,CASH,2,2
SRI1324,2023-12-17,Sodepur,Belt,Charcoal Grey,4323.77,16,Male,CREDIT CARD,1,5
SRI8086,2024-03-02,Barrackpore,Wallet,Dark Brown,4583.82,26,Male,UPI,3,3
SRI6448,2024-06-08,Ballygunj,Purse,Charcoal Grey,1055.23,5,Male,UPI,5,5
SRI6137,2024-05-25,Barrackpore,Belt,Dark Brown,2971.67,24,Female,EMI,5,4
SRI1596,2023-10-08,Howrah,Purse,Black,2372.23,16,Female,CREDIT CARD,2,1
SRI6539,2023-09-22,Sodepur,Brouges,Dark Brown,749.34,7,Female,CREDIT CARD,5,1
SRI2631,2023-11-06,Howrah,Oxford Shoes,Burgundy,3269.9,19,Female,CASH,4,3
SRI2049,2024-01-05,Barrackpore,Loafers,Charcoal Grey,1439.99,26,Female,CASH,1,5
SRI4914,2023-12-26,Sodepur,Brouges,Black,3993.8,11,Male,UPI,5,4
SRI3613,2024-02-03,Ballygunj,Loafers,Black,1912.31,7,Female,CASH,1,4
SRI5548,2023-12-02,Sodepur,Loafers,Charcoal Grey,4889.83,29,Female,CREDIT CARD,5,4
SRI5032,2023-11-06,Ballygunj,Loafers,Black,4773.39,28,Male,CASH,4,2
SRI4044,2024-03-16,Barrackpore,Belt,Dark Brown,957.0,15,Male,CASH,4,2
SRI7133,2024-02-26,Howrah,Oxford Shoes,Black,4483.98,7,Male,EMI,2,2
SRI3228,2023-07-03,Howrah,Purse,Charcoal Grey,3594.69,13,Male,UPI,5,5
SRI9375,2024-02-10,Ballygunj,Oxford Shoes,Dark Brown,4009.28,17,Female,CASH,3,5
SRI8111,2024-03-08,Sodepur,Belt,Burgundy,4006.88,15,Female,EMI,3,4
SRI2515,2024-05-11,Barrackpore,Belt,Burgundy,2163.61,12,Female,CASH,5,1
SRI8067,2024-03-04,Sodepur,Loafers,Charcoal Grey,2413.31,7,Male,UPI,2,1
SRI6221,2024-03-05,Howrah,Loafers,Black,4528.59,24,Male,CASH,3,4
SRI7739,2023-08-25,Howrah,Loafers,Burgundy,2763.46,28,Female,CASH,5,2
SRI7097,2023-11-15,Howrah,Oxford Shoes,Dark Brown,2339.38,29,Male,CASH,5,3
SRI9805,2023-08-19,Ballygunj,Oxford Shoes,Burgundy,2306.11,25,Male,CREDIT CARD,4,4
SRI3400,2023-09-17,Sodepur,Purse,Black,2845.43,23,Male,EMI,2,4
SRI5056,2023-08-16,Ballygunj,Belt,Burgundy,4524.57,10,Male,CASH,1,5
SRI1257,2023-06-28,Ballygunj,Loafers,Black,4897.89,8,Female,CASH,3,2
SRI7329,2024-06-03,Barrackpore,Belt,Dark Brown,2598.03,13,Female,EMI,3,3
SRI1086,2023-10-01,Sodepur,Belt,Burgundy,1041.8,24,Male,UPI,2,3
SRI1079,2024-02-10,Ballygunj,Belt,Dark Brown,1194.23,5,Male,EMI,3,1
SRI8063,2023-08-17,Barrackpore,Wallet,Black,1124.59,26,Male,UPI,5,2
SRI9832,2024-02-09,Sodepur,Belt,Burgundy,1240.73,25,Male,UPI,4,4
SRI3636,2024-04-20,Barrackpore,Oxford Shoes,Charcoal Grey,587.13,21,Female,UPI,5,1
SRI8360,2023-08-18,Barrackpore,Loafers,Black,3192.04,5,Male,EMI,3,5
SRI8396,2023-07-30,Ballygunj,Purse,Dark Brown,4291.21,22,Female,EMI,5,2
SRI3477,2024-06-16,Barrackpore,Belt,Black,1730.09,25,Male,UPI,4,4
SRI4144,2023-08-09,Ballygunj,Brouges,Dark Brown,905.15,20,Male,UPI,2,4
SRI4689,2024-03-16,Barrackpore,Brouges,Charcoal Grey,2278.03,22,Male,CREDIT CARD,1,2
SRI3515,2024-06-24,Sodepur,Loafers,Black,4606.98,17,Female,CREDIT CARD,1,2
SRI4088,2023-07-27,Ballygunj,Belt,Dark Brown,2032.27,26,Male,EMI,5,2
SRI6160,2024-03-19,Ballygunj,Wallet,Charcoal Grey,2707.28,22,Female,CREDIT CARD,3,4
SRI9583,2024-01-18,Howrah,Oxford Shoes,Black,2911.67,16,Female,UPI,4,1
SRI2733,2024-05-12,Sodepur,Loafers,Black,2881.61,24,Female,EMI,4,3
SRI8857,2024-05-05,Ballygunj,Wallet,Burgundy,2268.24,12,Female,CASH,3,1
SRI3348,2024-01-14,Ballygunj,Oxford Shoes,Burgundy,3629.8,6,Female,UPI,5,3
SRI4731,2024-04-22,Howrah,Wallet,Burgundy,2482.98,29,Female,UPI,3,5
SRI9827,2023-08-04,Sodepur,Brouges,Charcoal Grey,774.69,30,Male,CASH,5,2
SRI6723,2024-05-17,Ballygunj,Oxford Shoes,Burgundy,1640.85,25,Male,CASH,2,3
SRI7036,2023-07-08,Barrackpore,Oxford Shoes,Dark Brown,4724.61,23,Female,EMI,3,3
SRI1751,2024-01-03,Sodepur,Oxford Shoes,Dark Brown,2904.6,13,Female,CASH,5,4
SRI3756,2023-11-20,Barrackpore,Purse,Burgundy,2995.52,16,Male,UPI,1,5
SRI8635,2023-11-30,Barrackpore,Belt,Black,1347.87,12,Female,UPI,3,5
SRI4600,2023-12-31,Howrah,Wallet,Burgundy,1812.43,22,Female,EMI,5,4
SRI8101,2023-10-10,Sodepur,Wallet,Dark Brown,4565.58,18,Female,CREDIT CARD,1,5
SRI8025,2024-02-19,Sodepur,Purse,Charcoal Grey,832.66,27,Male,EMI,1,3
SRI6216,2023-08-02,Ballygunj,Brouges,Dark Brown,4373.05,23,Female,CREDIT CARD,1,2
SRI3164,2023-10-04,Howrah,Wallet,Black,4466.06,6,Female,EMI,3,2
SRI7518,2023-09-24,Barrackpore,Belt,Dark Brown,3158.69,9,Male,CREDIT CARD,5,4
SRI8996,2024-04-18,Barrackpore,Oxford Shoes,Charcoal Grey,1333.9,5,Male,CREDIT CARD,2,4
SRI6537,2024-04-19,Howrah,Brouges,Black,528.18,27,Female,EMI,4,1
SRI2480,2024-03-16,Howrah,Belt,Dark Brown,4998.8,15,Female,CASH,3,4
SRI6165,2023-08-28,Ballygunj,Belt,Charcoal Grey,4463.68,12,Male,CREDIT CARD,4,2
SRI5455,2023-12-30,Sodepur,Purse,Burgundy,3546.26,28,Female,CASH,3,3
SRI3797,2024-04-22,Ballygunj,Belt,Black,3155.11,12,Female,CREDIT CARD,5,5
SRI5153,2024-03-23,Sodepur,Purse,Burgundy,878.06,9,Female,CREDIT CARD,1,5
SRI4750,2023-09-19,Howrah,Belt,Black,541.42,12,Female,CREDIT CARD,2,3
SRI9020,2024-02-17,Barrackpore,Oxford Shoes,Burgundy,2196.71,18,Male,CREDIT CARD,4,2
SRI6367,2023-11-09,Barrackpore,Brouges,Black,4181.65,13,Female,CREDIT CARD,2,2
SRI6316,2023-08-12,Barrackpore,Purse,Dark Brown,4131.98,14,Male,UPI,5,2
SRI9016,2023-09-08,Sodepur,Loafers,Charcoal Grey,4199.32,26,Female,CASH,5,4
SRI4305,2023-08-09,Howrah,Brouges,Black,1792.43,12,Female,EMI,3,1
SRI6771,2023-07-16,Sodepur,Wallet,Burgundy,2045.77,9,Female,UPI,1,1
SRI1795,2023-07-13,Howrah,Wallet,Dark Brown,1588.84,26,Male,CASH,5,3
SRI5757,2023-08-01,Barrackpore,Wallet,Burgundy,857.72,9,Female,CASH,2,4
SRI6343,2024-05-17,Sodepur,Oxford Shoes,Black,1530.46,30,Male,CREDIT CARD,2,2
SRI9866,2024-02-17,Sodepur,Wallet,Dark Brown,3428.09,16,Male,CREDIT CARD,3,1
SRI3461,2024-04-22,Sodepur,Belt,Charcoal Grey,4126.05,25,Female,CREDIT CARD,2,2
SRI1782,2024-06-23,Barrackpore,Loafers,Burgundy,4484.19,23,Female,CASH,5,5
SRI3687,2024-05-29,Ballygunj,Oxford Shoes,Burgundy,2900.19,7,Female,CASH,3,2
SRI5821,2024-01-23,Howrah,Purse,Dark Brown,1994.81,14,Male,EMI,5,4
SRI2822,2023-09-19,Sodepur,Oxford Shoes,Charcoal Grey,1619.98,20,Male,CREDIT CARD,4,4
SRI8350,2024-03-28,Ballygunj,Belt,Charcoal Grey,3557.61,12,Female,EMI,2,5
SRI4853,2023-12-13,Howrah,Wallet,Dark Brown,4223.38,27,Male,UPI,3,5
SRI7933,2024-06-08,Sodepur,Brouges,Dark Brown,677.08,30,Female,UPI,3,2
SRI5199,2023-10-24,Ballygunj,Brouges,Burgundy,3440.83,29,Male,CASH,5,2
SRI5007,2023-10-07,Howrah,Purse,Charcoal Grey,1786.45,9,Male,UPI,5,3
SRI7609,2024-06-19,Ballygunj,Belt,Dark Brown,2536.46,26,Female,EMI,5,3
SRI4039,2023-09-09,Howrah,Belt,Charcoal Grey,3956.15,29,Female,EMI,3,4
SRI9291,2024-01-25,Sodepur,Belt,Black,3133.42,11,Female,UPI,3,1
SRI9261,2024-06-20,Howrah,Purse,Dark Brown,1171.43,15,Female,CREDIT CARD,5,2
SRI8190,2023-07-22,Ballygunj,Belt,Charcoal Grey,4827.65,8,Male,CREDIT CARD,4,4
SRI1789,2023-10-11,Sodepur,Purse,Charcoal Grey,2092.14,19,Female,EMI,4,3
SRI5776,2023-10-05,Ballygunj,Purse,Charcoal Grey,2739.9,24,Female,CREDIT CARD,5,5
SRI8502,2024-03-13,Ballygunj,Purse,Charcoal Grey,1880.48,14,Male,UPI,2,1
SRI1356,2023-08-06,Sodepur,Oxford Shoes,Dark Brown,3983.84,26,Female,CASH,4,5
SRI4026,2023-11-28,Sodepur,Loafers,Dark Brown,3169.08,18,Male,CREDIT CARD,5,4
SRI8837,2023-09-25,Barrackpore,Oxford Shoes,Burgundy,4173.42,19,Male,CASH,5,5
SRI9990,2023-08-13,Howrah,Belt,Charcoal Grey,625.53,6,Male,CASH,2,1
SRI9733,2023-12-16,Howrah,Oxford Shoes,Burgundy,4950.95,21,Male,CREDIT CARD,2,5
SRI4894,2023-07-18,Howrah,Wallet,Black,1312.38,15,Male,CASH,5,3
SRI7949,2024-02-22,Barrackpore,Oxford Shoes,Charcoal Grey,3524.33,6,Female,UPI,5,2
SRI8266,2024-06-15,Ballygunj,Loafers,Dark Brown,1681.0,26,Male,CREDIT CARD,4,3
SRI6080,2023-10-08,Ballygunj,Loafers,Dark Brown,654.95,25,Male,EMI,3,2
SRI9065,2024-02-01,Ballygunj,Brouges,Black,1809.03,17,Male,EMI,5,2
SRI8714,2024-01-21,Howrah,Oxford Shoes,Charcoal Grey,3683.87,30,Male,CASH,1,2
SRI3577,2023-07-13,Sodepur,Wallet,Burgundy,2170.79,28,Female,EMI,4,2
SRI5262,2024-05-30,Barrackpore,Belt,Charcoal Grey,4401.29,13,Male,UPI,2,2
SRI9119,2024-04-28,Ballygunj,Wallet,Dark Brown,3467.92,12,Male,UPI,1,5
SRI1304,2023-11-26,Howrah,Oxford Shoes,Charcoal Grey,2378.49,9,Male,UPI,4,5
SRI8207,2023-11-11,Howrah,Purse,Burgundy,4382.97,19,Female,CREDIT CARD,4,4
SRI4318,2023-07-31,Barrackpore,Loafers,Black,2490.7,17,Male,UPI,2,2
SRI4764,2023-09-13,Ballygunj,Brouges,Burgundy,1004.25,10,Male,CREDIT CARD,5,3
SRI7702,2023-11-01,Barrackpore,Wallet,Dark Brown,949.01,7,Female,CASH,4,4
SRI6619,2023-11-01,Sodepur,Purse,Dark Brown,690.61,6,Female,UPI,4,1
SRI4112,2023-09-15,Sodepur,Brouges,Burgundy,3051.01,12,Male,UPI,5,5
SRI3052,2024-04-07,Sodepur,Loafers,Burgundy,3072.67,18,Male,CASH,1,1
SRI6208,2024-06-17,Howrah,Belt,Black,3829.46,19,Female,UPI,5,2
SRI5289,2024-03-02,Sodepur,Purse,Black,3558.56,16,Male,EMI,3,2
SRI6389,2023-09-05,Howrah,Loafers,Charcoal Grey,1064.67,18,Male,CREDIT CARD,4,3
SRI6289,2024-02-22,Sodepur,Purse,Charcoal Grey,3749.79,29,Male,EMI,4,1
SRI1406,2023-08-09,Howrah,Loafers,Black,3682.92,22,Female,CASH,2,4
SRI6417,2024-06-15,Barrackpore,Loafers,Charcoal Grey,1873.76,14,Male,EMI,5,1
SRI4752,2024-03-21,Howrah,Belt,Burgundy,2879.5,27,Female,UPI,1,1
SRI9530,2023-11-29,Barrackpore,Wallet,Charcoal Grey,2747.38,28,Male,EMI,3,2
SRI9966,2023-11-26,Barrackpore,Brouges,Dark Brown,4718.12,5,Male,UPI,1,2
SRI2511,2023-11-20,Sodepur,Brouges,Charcoal Grey,4632.08,7,Female,CASH,3,4
SRI5590,2023-08-25,Ballygunj,Belt,Charcoal Grey,4060.31,15,Female,CASH,2,4
SRI3557,2024-06-11,Howrah,Belt,Burgundy,1790.69,21,Female,CASH,2,1
SRI2485,2023-12-09,Barrackpore,Loafers,Black,770.72,25,Female,EMI,2,3
SRI3867,2024-03-19,Ballygunj,Oxford Shoes,Black,2134.06,5,Female,EMI,3,1
SRI6216,2023-12-25,Sodepur,Wallet,Burgundy,2923.38,28,Male,UPI,4,1
SRI4332,2024-05-12,Sodepur,Belt,Charcoal Grey,3466.35,11,Male,CASH,2,5
SRI9251,2023-12-07,Barrackpore,Brouges,Black,1953.96,17,Female,CASH,3,2
SRI5408,2023-09-13,Barrackpore,Belt,Black,1070.02,28,Male,UPI,2,3
SRI9397,2023-09-18,Sodepur,Purse,Black,948.78,19,Male,EMI,1,2
SRI4558,2024-01-15,Howrah,Loafers,Charcoal Grey,4885.38,5,Male,CASH,5,5
SRI5147,2023-12-02,Sodepur,Wallet,Black,4505.53,19,Female,EMI,4,3
SRI1961,2024-06-01,Barrackpore,Purse,Dark Brown,586.0,18,Male,UPI,4,4
SRI9629,2023-08-10,Ballygunj,Purse,Dark Brown,4314.49,15,Female,UPI,4,2
SRI9259,2024-05-14,Howrah,Belt,Black,2754.88,14,Female,CASH,3,4
SRI5336,2024-05-16,Ballygunj,Purse,Black,2897.45,24,Female,EMI,5,3
SRI7437,2023-10-13,Barrackpore,Wallet,Black,1739.66,13,Female,UPI,2,1
SRI4331,2023-09-02,Ballygunj,Wallet,Charcoal Grey,4498.77,12,Male,EMI,1,5
SRI7175,2023-07-19,Sodepur,Belt,Black,4180.86,19,Male,CASH,2,5
SRI3794,2024-01-26,Ballygunj,Brouges,Charcoal Grey,917.85,26,Female,CREDIT CARD,5,4
SRI4627,2023-07-25,Sodepur,Loafers,Charcoal Grey,1123.7,14,Female,UPI,3,4
SRI9200,2024-03-12,Barrackpore,Oxford Shoes,Dark Brown,1118.25,27,Female,EMI,1,4
SRI3682,2023-08-24,Ballygunj,Wallet,Burgundy,1830.26,13,Female,CASH,2,1
SRI4517,2024-03-27,Howrah,Brouges,Black,769.24,21,Male,CREDIT CARD,2,5
SRI5482,2024-01-27,Ballygunj,Loafers,Burgundy,3632.49,18,Female,UPI,1,2
SRI2481,2023-09-07,Barrackpore,Loafers,Burgundy,2639.17,6,Male,UPI,2,5
SRI1898,2024-05-28,Ballygunj,Loafers,Charcoal Grey,506.95,8,Female,EMI,2,1
SRI6801,2024-01-30,Ballygunj,Belt,Black,1585.08,27,Male,CREDIT CARD,4,5
SRI1658,2024-03-13,Ballygunj,Loafers,Dark Brown,3490.84,22,Male,EMI,3,2
SRI8886,2024-03-13,Barrackpore,Oxford Shoes,Burgundy,3004.45,7,Male,CASH,2,4
SRI5661,2024-03-28,Howrah,Oxford Shoes,Burgundy,3759.16,14,Female,CASH,3,3
SRI1122,2023-10-31,Ballygunj,Loafers,Burgundy,3090.34,10,Female,CASH,2,4
SRI9324,2024-04-26,Ballygunj,Purse,Black,2087.64,9,Female,UPI,4,4
SRI7802,2024-05-16,Barrackpore,Oxford Shoes,Black,2826.2,20,Male,CREDIT CARD,1,4
SRI2470,2023-10-26,Ballygunj,Belt,Charcoal Grey,3101.84,22,Female,CASH,4,1
SRI2995,2023-12-08,Barrackpore,Purse,Dark Brown,3891.04,9,Female,UPI,3,3
SRI7177,2023-10-08,Ballygunj,Brouges,Charcoal Grey,1874.28,30,Male,UPI,3,1
SRI5990,2024-06-05,Ballygunj,Wallet,Charcoal Grey,4621.75,19,Female,UPI,3,1
SRI8009,2024-03-10,Howrah,Oxford Shoes,Dark Brown,2701.22,7,Male,CREDIT CARD,4,3
SRI6235,2023-09-20,Barrackpore,Brouges,Black,3588.39,25,Male,UPI,2,1
SRI9957,2023-12-23,Barrackpore,Oxford Shoes,Dark Brown,2280.34,21,Female,CASH,1,1
SRI9602,2024-02-21,Sodepur,Wallet,Black,1185.56,23,Female,EMI,2,1
SRI8204,2023-08-03,Howrah,Oxford Shoes,Dark Brown,2323.19,20,Male,CREDIT CARD,3,2
SRI3678,2023-08-26,Barrackpore,Brouges,Burgundy,4440.54,12,Male,EMI,5,4
SRI3538,2023-11-30,Barrackpore,Belt,Black,1156.74,7,Male,UPI,1,4
SRI5731,2024-03-07,Ballygunj,Belt,Dark Brown,2355.18,15,Male,CASH,1,2
SRI5222,2023-12-08,Barrackpore,Brouges,Charcoal Grey,3976.96,25,Female,CASH,2,2
SRI1016,2023-06-28,Howrah,Purse,Burgundy,2770.04,13,Female,CASH,1,4
SRI7828,2023-07-06,Ballygunj,Oxford Shoes,Dark Brown,2189.99,8,Male,CREDIT CARD,5,3
SRI1062,2024-04-21,Howrah,Loafers,Dark Brown,4824.3,29,Female,EMI,3,1
SRI2271,2024-03-30,Barrackpore,Loafers,Charcoal Grey,2570.36,9,Male,CASH,3,2
SRI8446,2023-09-26,Barrackpore,Loafers,Black,3010.5,24,Male,EMI,4,3
SRI9948,2023-07-18,Sodepur,Purse,Burgundy,880.76,25,Female,UPI,5,4
SRI8757,2023-09-07,Ballygunj,Belt,Dark Brown,2958.86,27,Male,CREDIT CARD,4,2
SRI5657,2024-03-23,Sodepur,Purse,Charcoal Grey,624.03,19,Male,CREDIT CARD,4,5
SRI1470,2024-06-01,Sodepur,Purse,Dark Brown,3965.65,13,Female,CASH,1,3
SRI1217,2024-04-25,Sodepur,Wallet,Burgundy,2346.16,30,Male,CREDIT CARD,1,2
SRI7664,2023-10-23,Howrah,Oxford Shoes,Black,3054.8,14,Male,CREDIT CARD,5,2
SRI1707,2024-03-05,Barrackpore,Brouges,Black,734.89,14,Male,CREDIT CARD,1,3
SRI6122,2023-09-05,Howrah,Wallet,Burgundy,701.91,23,Female,CREDIT CARD,1,1
SRI2824,2024-02-05,Sodepur,Purse,Charcoal Grey,3134.08,15,Male,CREDIT CARD,3,1
SRI3956,2024-05-14,Ballygunj,Purse,Dark Brown,1818.36,8,Female,CREDIT CARD,5,5
SRI6667,2023-08-01,Sodepur,Purse,Dark Brown,1798.04,29,Male,UPI,5,2
SRI6099,2023-11-17,Sodepur,Wallet,Burgundy,4129.42,14,Female,CASH,2,4
SRI6221,2024-02-26,Howrah,Loafers,Dark Brown,931.86,30,Male,UPI,3,3
SRI7585,2023-09-27,Sodepur,Purse,Charcoal Grey,1902.98,16,Female,CASH,3,3
SRI4124,2023-06-28,Barrackpore,Belt,Dark Brown,2508.79,9,Male,UPI,5,2
SRI7222,2023-12-16,Sodepur,Oxford Shoes,Burgundy,4077.59,20,Male,UPI,1,2
SRI4706,2024-05-21,Barrackpore,Wallet,Black,2528.28,13,Male,UPI,5,2
SRI9853,2024-06-10,Ballygunj,Oxford Shoes,Black,660.91,24,Male,CASH,4,4
SRI4883,2023-11-14,Barrackpore,Wallet,Burgundy,2157.5,23,Female,UPI,5,3
SRI3686,2024-05-05,Ballygunj,Loafers,Burgundy,4018.2,25,Female,EMI,2,1
SRI4195,2024-01-09,Howrah,Belt,Charcoal Grey,886.1,25,Female,EMI,5,5
SRI9549,2023-07-10,Barrackpore,Belt,Black,1657.97,14,Female,EMI,4,4
SRI3943,2023-11-07,Howrah,Brouges,Burgundy,1149.33,15,Female,UPI,2,3
SRI6613,2024-03-28,Sodepur,Wallet,Black,1786.39,13,Female,CASH,4,2
SRI1493,2023-11-18,Barrackpore,Brouges,Burgundy,2357.93,5,Male,EMI,3,2
SRI6321,2023-09-24,Barrackpore,Oxford Shoes,Dark Brown,3860.96,13,Female,UPI,2,5
SRI8392,2024-01-02,Sodepur,Belt,Dark Brown,3459.04,13,Female,EMI,4,4
SRI2867,2024-01-21,Howrah,Belt,Burgundy,4631.97,15,Male,EMI,2,4
SRI6287,2023-07-26,Howrah,Oxford Shoes,Charcoal Grey,1778.84,24,Female,CREDIT CARD,1,3
SRI8806,2023-07-09,Sodepur,Oxford Shoes,Charcoal Grey,2778.07,11,Female,CASH,2,4
SRI4944,2023-12-13,Howrah,Wallet,Charcoal Grey,3320.4,7,Female,CASH,4,3
SRI9865,2024-04-05,Barrackpore,Belt,Black,2255.13,5,Male,CREDIT CARD,2,1
SRI2348,2023-09-26,Ballygunj,Oxford Shoes,Burgundy,3918.59,16,Male,CASH,3,1
SRI4691,2024-01-18,Sodepur,Oxford Shoes,Black,4981.98,17,Female,CASH,2,4
SRI3730,2023-08-04,Ballygunj,Purse,Burgundy,1612.68,27,Female,UPI,2,5
SRI7758,2024-03-28,Ballygunj,Belt,Charcoal Grey,1735.34,21,Male,CASH,5,2
SRI5538,2023-12-14,Sodepur,Oxford Shoes,Burgundy,4530.61,16,Female,CASH,3,4
SRI9978,2024-06-11,Barrackpore,Belt,Charcoal Grey,3670.82,12,Male,UPI,1,4
SRI3116,2023-10-19,Howrah,Purse,Dark Brown,3348.02,26,Female,CASH,5,5
SRI4991,2024-01-30,Ballygunj,Brouges,Burgundy,2483.98,6,Male,CASH,4,4
SRI4912,2024-01-24,Ballygunj,Brouges,Dark Brown,2016.9,10,Female,CREDIT CARD,4,5
SRI9703,2024-01-04,Howrah,Purse,Burgundy,4021.0,27,Male,UPI,1,2
SRI4492,2023-10-20,Ballygunj,Purse,Charcoal Grey,1211.11,24,Male,EMI,3,1
SRI4447,2024-05-24,Barrackpore,Brouges,Charcoal Grey,4223.49,5,Male,EMI,2,5
SRI8099,2023-09-20,Barrackpore,Oxford Shoes,Black,925.47,6,Female,UPI,3,1
SRI4001,2024-06-12,Barrackpore,Belt,Charcoal Grey,4620.64,13,Male,UPI,3,2
SRI7785,2023-08-04,Ballygunj,Purse,Dark Brown,4025.49,19,Female,EMI,5,5
SRI3336,2023-11-25,Barrackpore,Belt,Burgundy,2772.61,12,Female,CASH,3,4
SRI4383,2023-10-25,Ballygunj,Oxford Shoes,Dark Brown,4661.14,10,Male,UPI,2,4
SRI5634,2023-08-19,Sodepur,Loafers,Dark Brown,2187.44,25,Female,CASH,1,3
SRI5949,2024-02-24,Howrah,Wallet,Burgundy,2487.1,6,Female,UPI,3,4
SRI5386,2023-12-13,Ballygunj,Brouges,Dark Brown,2848.35,17,Female,UPI,1,5
SRI6402,2024-02-02,Sodepur,Purse,Dark Brown,4729.06,23,Male,CASH,2,4
SRI5886,2024-04-13,Howrah,Purse,Dark Brown,2781.89,11,Male,EMI,2,4
SRI2466,2023-10-10,Ballygunj,Oxford Shoes,Black,1345.94,14,Female,CREDIT CARD,1,5
SRI2161,2024-02-28,Howrah,Loafers,Charcoal Grey,4577.05,23,Male,UPI,3,2
SRI3857,2023-12-08,Sodepur,Wallet,Dark Brown,1046.31,20,Female,CREDIT CARD,3,4
SRI4115,2024-03-11,Ballygunj,Belt,Dark Brown,538.41,18,Female,CASH,5,1
SRI6530,2024-06-19,Howrah,Loafers,Burgundy,3103.36,14,Female,CASH,4,4
SRI4388,2023-06-30,Ballygunj,Purse,Charcoal Grey,3189.98,11,Male,CASH,5,1
SRI5712,2023-09-07,Howrah,Oxford Shoes,Black,3816.07,26,Female,UPI,2,2
SRI8485,2024-02-01,Ballygunj,Wallet,Dark Brown,2149.76,18,Female,UPI,5,4
SRI3960,2024-04-19,Sodepur,Loafers,Black,696.85,30,Male,EMI,2,1
SRI8669,2023-10-21,Barrackpore,Brouges,Dark Brown,2478.04,25,Female,CREDIT CARD,1,4
SRI3174,2024-06-21,Ballygunj,Loafers,Charcoal Grey,4482.77,26,Female,CASH,1,5
SRI6330,2024-03-30,Barrackpore,Oxford Shoes,Dark Brown,1111.91,14,Female,EMI,5,2
SRI7298,2023-10-25,Sodepur,Belt,Charcoal Grey,4623.92,27,Female,UPI,1,1
SRI6410,2024-06-03,Sodepur,Loafers,Black,3142.92,20,Female,CASH,5,5
SRI9084,2023-07-22,Sodepur,Brouges,Burgundy,2330.04,10,Female,UPI,4,5
SRI1673,2023-07-08,Ballygunj,Loafers,Dark Brown,4777.56,18,Female,UPI,4,5
SRI8884,2024-05-22,Ballygunj,Oxford Shoes,Dark Brown,568.07,24,Female,EMI,5,3
SRI9023,2023-11-16,Sodepur,Wallet,Charcoal Grey,1619.13,7,Female,CREDIT CARD,3,3
SRI8620,2024-05-23,Ballygunj,Oxford Shoes,Charcoal Grey,612.39,22,Male,CREDIT CARD,3,3
SRI4488,2024-02-10,Ballygunj,Brouges,Black,1021.31,25,Male,CASH,1,1
SRI1706,2024-05-10,Ballygunj,Belt,Dark Brown,4084.01,20,Female,CREDIT CARD,2,4
SRI9809,2024-02-02,Sodepur,Purse,Charcoal Grey,4159.26,6,Female,CREDIT CARD,4,2
SRI3844,2024-03-18,Sodepur,Brouges,Charcoal Grey,2891.67,27,Male,CASH,1,3
SRI9573,2023-11-18,Ballygunj,Wallet,Burgundy,3429.82,15,Female,CASH,1,5
SRI2998,2024-05-07,Howrah,Wallet,Charcoal Grey,4177.88,20,Male,CREDIT CARD,5,4
SRI6223,2023-09-08,Sodepur,Wallet,Dark Brown,978.11,16,Female,EMI,3,1
SRI4012,2023-07-27,Howrah,Brouges,Burgundy,1398.44,23,Male,EMI,5,4
SRI1541,2024-03-29,Ballygunj,Purse,Burgundy,2611.73,6,Female,CASH,3,5
SRI5474,2023-11-18,Ballygunj,Purse,Black,3599.75,14,Male,UPI,4,2
SRI4000,2024-04-15,Barrackpore,Oxford Shoes,Dark Brown,4391.39,12,Female,CASH,1,3
SRI6808,2024-06-15,Barrackpore,Loafers,Burgundy,1287.49,17,Female,UPI,3,3
SRI5803,2023-09-10,Barrackpore,Wallet,Charcoal Grey,1458.54,11,Female,EMI,4,4
SRI2896,2023-07-20,Ballygunj,Loafers,Dark Brown,4581.7,12,Male,CREDIT CARD,5,3
SRI3803,2024-01-03,Howrah,Brouges,Burgundy,3954.88,14,Male,CREDIT CARD,5,3
SRI3467,2024-01-14,Sodepur,Belt,Charcoal Grey,2281.37,16,Male,UPI,4,1
SRI2143,2023-12-28,Howrah,Loafers,Burgundy,2249.46,19,Female,EMI,2,1
SRI9335,2023-09-20,Howrah,Purse,Black,4355.09,9,Male,EMI,1,5
SRI8574,2023-07-04,Howrah,Brouges,Burgundy,2401.44,24,Male,EMI,4,2
SRI9886,2024-03-19,Barrackpore,Belt,Charcoal Grey,1638.77,5,Male,CREDIT CARD,4,3
SRI8397,2023-11-04,Barrackpore,Wallet,Black,2182.78,21,Female,EMI,4,3
SRI1746,2024-06-07,Barrackpore,Wallet,Black,2798.16,24,Male,CASH,2,2
SRI1152,2023-07-06,Howrah,Loafers,Dark Brown,4982.72,6,Female,UPI,2,3
SRI8988,2023-11-19,Barrackpore,Belt,Dark Brown,4386.36,9,Male,EMI,3,4
SRI7386,2023-09-17,Ballygunj,Purse,Burgundy,3721.91,9,Female,CASH,4,1
SRI6303,2023-09-23,Howrah,Wallet,Dark Brown,691.45,13,Female,CASH,4,2
SRI1457,2023-09-24,Ballygunj,Belt,Black,1416.24,8,Female,CASH,4,2
SRI3979,2024-04-28,Sodepur,Purse,Dark Brown,557.84,12,Female,CREDIT CARD,1,5
SRI9576,2024-01-21,Sodepur,Oxford Shoes,Burgundy,1943.88,11,Male,UPI,5,2
SRI4369,2024-02-19,Ballygunj,Purse,Charcoal Grey,4658.57,14,Male,UPI,3,2
SRI4310,2024-05-03,Howrah,Oxford Shoes,Charcoal Grey,4061.49,30,Male,CREDIT CARD,4,1
SRI3304,2024-04-30,Ballygunj,Belt,Burgundy,1187.49,6,Female,EMI,1,1
SRI4569,2023-10-19,Ballygunj,Loafers,Dark Brown,3785.92,15,Male,EMI,3,1
SRI2930,2024-03-22,Sodepur,Wallet,Dark Brown,4971.29,21,Female,CASH,4,5
SRI9052,2024-04-02,Barrackpore,Brouges,Burgundy,708.07,30,Female,UPI,5,3
SRI2324,2023-12-05,Howrah,Brouges,Charcoal Grey,1496.55,10,Male,CREDIT CARD,3,3
SRI4305,2024-04-21,Barrackpore,Purse,Dark Brown,2962.57,19,Female,CASH,1,1
SRI6560,2023-11-19,Howrah,Brouges,Black,2813.3,29,Female,UPI,2,2
SRI1224,2023-08-17,Ballygunj,Brouges,Charcoal Grey,3444.44,23,Female,UPI,1,5
SRI3180,2024-01-11,Sodepur,Oxford Shoes,Charcoal Grey,2146.23,16,Male,EMI,3,3
SRI4051,2023-09-07,Sodepur,Loafers,Black,2425.34,21,Male,CASH,4,5
SRI4533,2024-05-13,Barrackpore,Oxford Shoes,Burgundy,2767.52,30,Male,CASH,2,4
SRI6914,2023-11-02,Howrah,Wallet,Black,3099.94,22,Female,CREDIT CARD,1,5
SRI8672,2024-02-11,Ballygunj,Wallet,Dark Brown,3857.89,7,Male,CREDIT CARD,5,3
SRI7895,2024-05-30,Howrah,Brouges,Charcoal Grey,963.12,20,Male,CASH,2,2
SRI6933,2023-07-17,Ballygunj,Oxford Shoes,Burgundy,2473.68,13,Male,EMI,4,2
SRI4144,2023-09-26,Howrah,Wallet,Dark Brown,4434.89,29,Male,UPI,1,1
SRI6362,2023-11-23,Howrah,Wallet,Burgundy,3630.07,17,Female,EMI,4,2
SRI2866,2023-10-20,Barrackpore,Purse,Burgundy,1183.32,7,Female,UPI,5,4
SRI6168,2024-04-03,Howrah,Brouges,Black,3773.24,23,Female,EMI,2,4
SRI8033,2024-05-19,Barrackpore,Purse,Burgundy,3225.03,22,Female,EMI,3,1
SRI6509,2023-08-25,Sodepur,Oxford Shoes,Black,1450.01,14,Female,CREDIT CARD,3,4
SRI8175,2024-01-08,Ballygunj,Wallet,Charcoal Grey,733.08,16,Female,EMI,5,2
SRI2811,2024-02-21,Ballygunj,Wallet,Charcoal Grey,4137.83,13,Female,EMI,5,4
SRI8447,2024-05-10,Sodepur,Brouges,Black,3613.71,17,Male,CREDIT CARD,4,3
SRI5943,2023-06-30,Howrah,Oxford Shoes,Black,4088.49,19,Male,CREDIT CARD,5,1
SRI8482,2023-07-30,Ballygunj,Oxford Shoes,Charcoal Grey,4330.58,7,Female,CREDIT CARD,1,4
SRI8153,2024-06-08,Barrackpore,Brouges,Dark Brown,1339.36,25,Female,CREDIT CARD,1,4
SRI5976,2023-07-11,Barrackpore,Wallet,Black,1022.69,16,Male,CASH,4,2
SRI3652,2023-08-27,Barrackpore,Oxford Shoes,Black,1268.56,6,Male,CREDIT CARD,2,2
SRI6387,2023-10-08,Sodepur,Oxford Shoes,Dark Brown,1872.99,25,Female,UPI,3,4
SRI4626,2023-09-13,Sodepur,Purse,Black,1649.85,9,Female,CASH,5,2
SRI7918,2024-05-10,Howrah,Wallet,Black,4008.78,20,Male,CREDIT CARD,2,3
SRI5449,2023-07-14,Sodepur,Wallet,Charcoal Grey,1081.36,30,Male,EMI,1,3
SRI8473,2024-02-28,Sodepur,Wallet,Black,3369.32,21,Male,CREDIT CARD,2,5
SRI5152,2024-02-02,Sodepur,Belt,Charcoal Grey,1586.58,26,Female,UPI,4,3
SRI9994,2023-08-08,Ballygunj,Wallet,Charcoal Grey,4062.51,12,Female,UPI,3,2
SRI8063,2023-07-02,Ballygunj,Oxford Shoes,Burgundy,1886.26,28,Male,CASH,1,5
SRI3869,2024-06-17,Howrah,Purse,Burgundy,4044.36,7,Female,CREDIT CARD,5,3
SRI9548,2024-05-17,Ballygunj,Loafers,Dark Brown,3778.76,14,Male,UPI,5,5
SRI5683,2024-04-22,Sodepur,Loafers,Charcoal Grey,3986.92,24,Male,UPI,3,5
SRI8570,2023-11-02,Ballygunj,Belt,Charcoal Grey,1859.63,22,Female,CASH,5,1
SRI5192,2024-03-25,Sodepur,Purse,Charcoal Grey,2225.96,13,Female,EMI,2,2
SRI2006,2024-01-01,Ballygunj,Oxford Shoes,Dark Brown,2258.38,24,Male,CASH,4,2
SRI2474,2024-02-08,Ballygunj,Belt,Dark Brown,3626.06,14,Male,UPI,3,4
SRI3078,2023-09-27,Ballygunj,Loafers,Dark Brown,2795.41,11,Female,CREDIT CARD,5,1
SRI2371,2023-10-20,Ballygunj,Oxford Shoes,Black,3418.29,6,Male,UPI,2,2
SRI5338,2024-06-06,Sodepur,Purse,Charcoal Grey,4419.96,6,Female,CREDIT CARD,2,2
SRI4218,2024-01-05,Barrackpore,Oxford Shoes,Dark Brown,728.29,27,Female,UPI,1,3
SRI8240,2024-05-08,Sodepur,Purse,Charcoal Grey,3934.35,8,Female,UPI,5,5
SRI5000,2024-06-23,Howrah,Brouges,Charcoal Grey,1735.52,19,Female,UPI,3,5
SRI8621,2024-01-23,Howrah,Brouges,Black,1157.23,17,Female,EMI,4,3
SRI4348,2023-10-06,Ballygunj,Wallet,Dark Brown,4190.87,23,Male,UPI,1,5
SRI5841,2024-02-22,Barrackpore,Belt,Black,2361.71,6,Male,CREDIT CARD,3,4
SRI4608,2024-05-29,Ballygunj,Belt,Burgundy,1846.23,24,Female,CASH,2,5
SRI1118,2024-06-03,Ballygunj,Wallet,Charcoal Grey,3050.45,29,Female,CASH,4,4
SRI3766,2024-04-05,Ballygunj,Brouges,Black,4607.49,24,Female,EMI,3,2
SRI1861,2024-05-16,Howrah,Oxford Shoes,Burgundy,1626.55,6,Female,UPI,1,1
SRI9790,2024-06-21,Sodepur,Loafers,Dark Brown,2253.31,5,Male,CASH,5,3
SRI6285,2024-01-10,Ballygunj,Oxford Shoes,Burgundy,1773.97,28,Female,CASH,5,4
SRI9642,2023-08-17,Howrah,Belt,Burgundy,904.11,13,Male,CREDIT CARD,4,2
SRI8044,2024-04-12,Sodepur,Oxford Shoes,Burgundy,4350.86,9,Female,CREDIT CARD,2,5
SRI4158,2023-09-28,Sodepur,Oxford Shoes,Charcoal Grey,2813.46,9,Female,CREDIT CARD,1,2
SRI4681,2024-05-23,Barrackpore,Loafers,Charcoal Grey,4439.6,17,Female,EMI,5,5
SRI4953,2024-05-10,Howrah,Oxford Shoes,Dark Brown,3956.9,23,Male,EMI,3,4
SRI8647,2023-10-20,Ballygunj,Wallet,Black,2090.39,11,Female,UPI,5,1
SRI5949,2023-10-19,Barrackpore,Wallet,Burgundy,3596.34,23,Male,UPI,4,1
SRI2554,2024-01-04,Sodepur,Belt,Burgundy,2961.16,9,Female,EMI,4,1
SRI9390,2024-02-15,Howrah,Oxford Shoes,Charcoal Grey,2251.71,23,Male,CREDIT CARD,2,5
SRI8280,2024-02-01,Ballygunj,Loafers,Dark Brown,3499.75,12,Male,EMI,1,5
SRI9213,2023-09-13,Barrackpore,Oxford Shoes,Burgundy,4078.33,27,Male,EMI,3,2
SRI7797,2023-07-08,Barrackpore,Wallet,Dark Brown,4140.21,8,Male,CASH,3,5
SRI9673,2024-01-28,Sodepur,Brouges,Black,2021.89,14,Female,CASH,1,4
SRI9196,2023-12-05,Barrackpore,Belt,Burgundy,3765.85,25,Female,CASH,4,4
SRI8582,2024-04-27,Howrah,Purse,Black,4192.93,28,Female,EMI,4,2
SRI1267,2023-11-06,Ballygunj,Purse,Dark Brown,1614.31,25,Male,CREDIT CARD,2,3
SRI4168,2024-02-28,Howrah,Oxford Shoes,Burgundy,2637.8,12,Male,EMI,5,3
SRI4246,2023-08-28,Howrah,Loafers,Dark Brown,688.09,14,Male,CREDIT CARD,3,2
SRI6827,2024-06-15,Sodepur,Oxford Shoes,Burgundy,1110.81,8,Female,CREDIT CARD,2,1
SRI7998,2024-05-08,Sodepur,Brouges,Burgundy,3686.35,13,Female,CASH,1,5
SRI3936,2023-11-24,Barrackpore,Loafers,Dark Brown,839.71,24,Male,CASH,3,2
SRI2610,2023-07-12,Sodepur,Loafers,Dark Brown,1595.67,12,Female,UPI,2,1
SRI2449,2024-03-23,Ballygunj,Wallet,Charcoal Grey,3555.86,29,Male,EMI,3,1
SRI1767,2024-01-08,Sodepur,Wallet,Dark Brown,1243.07,9,Male,EMI,4,5
SRI4363,2023-09-29,Barrackpore,Belt,Charcoal Grey,1738.62,27,Male,CREDIT CARD,3,4
SRI7735,2024-04-02,Barrackpore,Wallet,Charcoal Grey,2354.9,30,Male,UPI,3,5
SRI4616,2024-04-07,Ballygunj,Loafers,Black,4227.91,19,Female,CREDIT CARD,3,1
SRI5660,2023-10-25,Barrackpore,Belt,Charcoal Grey,4731.14,27,Female,EMI,4,3
SRI5288,2024-06-21,Barrackpore,Purse,Charcoal Grey,2638.14,11,Male,UPI,3,5
SRI3623,2023-08-03,Howrah,Belt,Burgundy,4670.84,10,Female,UPI,1,4
SRI2317,2024-01-22,Barrackpore,Brouges,Dark Brown,3861.36,13,Male,EMI,2,4
SRI6721,2023-10-02,Ballygunj,Brouges,Dark Brown,3762.38,30,Female,CASH,2,5
SRI7911,2024-04-29,Howrah,Oxford Shoes,Charcoal Grey,4130.76,24,Male,UPI,2,2
SRI8219,2024-03-14,Ballygunj,Loafers,Charcoal Grey,4292.05,10,Male,CASH,3,5
SRI8489,2024-04-05,Howrah,Oxford Shoes,Black,4731.64,19,Female,CASH,2,2
SRI5725,2024-03-19,Barrackpore,Purse,Charcoal Grey,3628.39,16,Female,CASH,2,2
SRI7362,2024-06-16,Ballygunj,Wallet,Dark Brown,4344.51,28,Male,CREDIT CARD,2,1
SRI2651,2024-06-23,Howrah,Brouges,Burgundy,3541.93,15,Female,CREDIT CARD,2,2
SRI9107,2024-06-03,Barrackpore,Wallet,Burgundy,1870.8,30,Female,EMI,5,1
SRI2691,2024-01-11,Sodepur,Belt,Dark Brown,3700.61,25,Male,UPI,1,5
SRI7980,2024-03-19,Howrah,Oxford Shoes,Burgundy,2519.15,5,Female,CASH,5,1
SRI2680,2023-09-03,Barrackpore,Wallet,Charcoal Grey,2067.73,13,Male,CREDIT CARD,5,2
SRI1980,2023-06-28,Barrackpore,Brouges,Charcoal Grey,1711.97,12,Male,CASH,2,2
SRI7858,2024-03-05,Ballygunj,Wallet,Dark Brown,4219.55,27,Female,CASH,2,3
SRI1612,2024-05-19,Barrackpore,Belt,Dark Brown,2538.89,22,Female,EMI,3,1
SRI6373,2023-08-11,Sodepur,Brouges,Black,4847.07,11,Male,UPI,3,4
SRI3428,2024-04-19,Howrah,Oxford Shoes,Dark Brown,1256.0,10,Male,CASH,4,1
SRI4988,2024-05-01,Sodepur,Wallet,Black,4390.87,14,Male,UPI,3,2
SRI9234,2023-07-02,Ballygunj,Wallet,Charcoal Grey,1722.23,17,Female,CASH,3,5
SRI4298,2023-08-29,Howrah,Loafers,Dark Brown,786.22,10,Female,CASH,4,5
SRI5269,2024-05-24,Ballygunj,Loafers,Burgundy,2659.93,12,Male,CREDIT CARD,3,4
SRI4574,2024-06-19,Ballygunj,Wallet,Charcoal Grey,1955.85,19,Female,UPI,1,3
SRI2033,2023-08-14,Barrackpore,Belt,Charcoal Grey,1445.99,29,Female,EMI,4,3
SRI3495,2023-10-02,Sodepur,Belt,Black,3520.14,6,Female,CASH,4,5
SRI3278,2023-08-22,Ballygunj,Wallet,Burgundy,1815.81,23,Male,CASH,4,4
SRI3815,2023-09-21,Howrah,Belt,Burgundy,1478.69,19,Female,CASH,2,5
SRI2127,2024-02-28,Barrackpore,Oxford Shoes,Burgundy,4385.05,9,Male,CREDIT CARD,5,1
SRI3641,2023-08-02,Sodepur,Wallet,Burgundy,2041.17,10,Female,EMI,1,1
SRI7055,2024-02-06,Sodepur,Wallet,Burgundy,3110.56,17,Female,CREDIT CARD,1,3
SRI5130,2024-02-09,Ballygunj,Purse,Burgundy,1954.3,23,Male,EMI,2,5
SRI6585,2024-01-25,Howrah,Belt,Dark Brown,825.01,30,Male,EMI,2,2
SRI5233,2023-09-04,Howrah,Brouges,Charcoal Grey,3254.59,21,Female,EMI,3,1
SRI9007,2023-10-08,Sodepur,Purse,Black,675.9,9,Male,CREDIT CARD,2,1
SRI7698,2023-10-16,Barrackpore,Loafers,Burgundy,4593.31,13,Female,EMI,1,5
SRI4325,2024-06-12,Ballygunj,Brouges,Black,3467.63,15,Female,CREDIT CARD,3,5
SRI6213,2024-04-21,Ballygunj,Purse,Dark Brown,840.94,5,Female,EMI,3,2
SRI9431,2024-01-15,Barrackpore,Belt,Dark Brown,1522.6,24,Female,EMI,2,4
SRI1485,2024-01-20,Sodepur,Wallet,Charcoal Grey,4994.19,17,Male,UPI,4,5
SRI6230,2023-11-12,Sodepur,Loafers,Black,3080.14,21,Male,EMI,3,5
SRI9431,2024-06-15,Ballygunj,Purse,Dark Brown,1376.65,12,Female,CASH,4,3
SRI7564,2023-11-18,Sodepur,Wallet,Burgundy,1849.24,26,Male,EMI,4,1
SRI9796,2024-05-07,Barrackpore,Purse,Black,3028.77,27,Female,CREDIT CARD,3,4
SRI6829,2023-08-08,Howrah,Purse,Charcoal Grey,1637.2,23,Female,CASH,1,2
SRI7174,2023-10-02,Howrah,Brouges,Burgundy,4569.42,13,Female,EMI,1,3
SRI4115,2024-05-30,Ballygunj,Loafers,Dark Brown,3388.14,7,Male,UPI,5,3
SRI6216,2023-08-23,Ballygunj,Purse,Dark Brown,4223.75,9,Male,EMI,1,1
SRI2570,2023-09-21,Howrah,Brouges,Charcoal Grey,569.11,13,Female,CASH,1,5
SRI2936,2023-08-24,Barrackpore,Oxford Shoes,Charcoal Grey,4727.27,18,Female,UPI,2,5
SRI6135,2023-08-10,Barrackpore,Brouges,Dark Brown,4263.77,5,Male,UPI,5,3
SRI1849,2023-07-25,Barrackpore,Belt,Dark Brown,2963.06,20,Female,EMI,1,4
SRI1483,2024-03-07,Barrackpore,Purse,Black,2121.48,18,Male,CREDIT CARD,5,5
SRI8432,2024-04-07,Barrackpore,Belt,Dark Brown,3265.38,25,Female,EMI,4,4
SRI3867,2023-09-25,Ballygunj,Brouges,Dark Brown,911.25,18,Female,UPI,3,3
SRI4634,2024-02-17,Howrah,Oxford Shoes,Burgundy,3354.88,21,Male,CASH,1,5
SRI3485,2024-03-07,Barrackpore,Brouges,Charcoal Grey,3245.78,9,Female,CREDIT CARD,2,1
SRI5479,2024-04-16,Howrah,Wallet,Burgundy,2340.11,23,Male,CREDIT CARD,4,3
SRI1845,2024-02-15,Howrah,Wallet,Black,2960.48,21,Male,EMI,1,3
SRI3994,2024-05-12,Howrah,Loafers,Black,1935.14,26,Male,EMI,1,2
SRI9792,2023-12-27,Howrah,Loafers,Black,1955.45,8,Female,CASH,5,1
SRI8607,2024-05-13,Ballygunj,Brouges,Black,4736.61,18,Female,EMI,2,4
SRI4315,2023-10-13,Howrah,Brouges,Dark Brown,709.49,23,Female,CASH,1,5
SRI4108,2023-08-31,Howrah,Oxford Shoes,Charcoal Grey,1332.2,10,Male,EMI,5,1
SRI1834,2023-11-02,Ballygunj,Loafers,Dark Brown,3811.23,13,Female,CREDIT CARD,4,1
SRI8576,2024-01-27,Howrah,Loafers,Burgundy,4436.11,30,Female,EMI,2,1
SRI8517,2023-08-24,Ballygunj,Oxford Shoes,Charcoal Grey,4367.2,23,Female,EMI,3,3
SRI7495,2024-02-29,Sodepur,Belt,Charcoal Grey,1346.75,5,Male,UPI,4,3
SRI7220,2024-03-03,Howrah,Purse,Burgundy,4911.58,27,Female,CASH,4,4
SRI1314,2023-12-27,Barrackpore,Wallet,Burgundy,4776.44,25,Male,CASH,1,2
SRI2139,2024-02-28,Barrackpore,Belt,Dark Brown,973.86,23,Female,CASH,4,5
SRI3125,2024-01-02,Howrah,Purse,Burgundy,2009.37,11,Female,CASH,5,2
SRI2361,2024-03-01,Ballygunj,Wallet,Dark Brown,1239.75,14,Male,EMI,4,2
SRI9734,2023-10-11,Ballygunj,Brouges,Black,922.66,8,Male,CREDIT CARD,1,5
SRI6613,2023-09-17,Howrah,Oxford Shoes,Dark Brown,4028.35,18,Male,CASH,5,4
SRI3817,2024-04-01,Sodepur,Belt,Burgundy,4960.28,15,Female,CREDIT CARD,5,3
SRI7971,2024-03-28,Sodepur,Belt,Charcoal Grey,2979.44,29,Male,CREDIT CARD,2,1
SRI8276,2024-04-09,Howrah,Belt,Black,3660.61,21,Female,CASH,4,1
SRI6121,2023-08-08,Howrah,Loafers,Burgundy,4010.66,29,Male,UPI,4,2
SRI5345,2024-05-15,Barrackpore,Brouges,Dark Brown,3200.82,22,Male,EMI,2,1
SRI2140,2023-11-08,Howrah,Purse,Charcoal Grey,3396.95,11,Male,EMI,3,3
SRI9083,2024-02-24,Barrackpore,Belt,Dark Brown,4834.96,22,Female,CREDIT CARD,4,5
SRI2752,2023-07-15,Barrackpore,Wallet,Dark Brown,2173.15,8,Female,UPI,2,1
SRI2188,2024-05-27,Barrackpore,Belt,Burgundy,4728.17,9,Male,EMI,2,2
SRI6811,2023-12-06,Ballygunj,Wallet,Dark Brown,4031.88,20,Female,EMI,4,5
SRI8202,2024-01-06,Sodepur,Belt,Black,4618.54,28,Female,CASH,5,2
SRI1369,2024-01-31,Sodepur,Wallet,Black,4990.08,28,Male,CREDIT CARD,5,2
SRI9513,2024-03-25,Sodepur,Oxford Shoes,Dark Brown,2997.77,22,Female,CASH,2,3
SRI3984,2023-11-09,Sodepur,Purse,Black,4723.87,29,Male,UPI,1,3
SRI7867,2023-09-24,Ballygunj,Wallet,Charcoal Grey,633.5,22,Male,CASH,4,2
SRI2470,2023-07-07,Ballygunj,Belt,Charcoal Grey,2392.17,16,Female,CREDIT CARD,5,4
SRI9606,2023-12-24,Howrah,Oxford Shoes,Dark Brown,2828.39,22,Female,CREDIT CARD,5,5
SRI2411,2023-10-05,Howrah,Brouges,Dark Brown,1157.65,30,Male,EMI,3,3
SRI6806,2024-04-10,Howrah,Oxford Shoes,Burgundy,3452.9,27,Female,CASH,4,5
SRI5561,2024-06-19,Ballygunj,Belt,Dark Brown,2447.27,17,Female,CASH,4,4
SRI6988,2023-11-14,Howrah,Oxford Shoes,Burgundy,4454.96,20,Female,EMI,1,1
SRI3535,2024-02-27,Sodepur,Oxford Shoes,Burgundy,2884.11,5,Male,EMI,5,2
SRI1073,2024-04-03,Barrackpore,Wallet,Dark Brown,1164.88,17,Male,CREDIT CARD,5,5
SRI2669,2024-05-26,Sodepur,Belt,Charcoal Grey,3747.49,30,Female,EMI,1,5
SRI2980,2024-04-02,Howrah,Belt,Black,4109.61,26,Female,CREDIT CARD,2,5
SRI2929,2024-01-07,Barrackpore,Wallet,Burgundy,3506.11,25,Male,UPI,1,1
SRI7293,2024-03-31,Barrackpore,Oxford Shoes,Burgundy,3362.4,19,Female,CASH,1,1
SRI7319,2023-11-13,Howrah,Loafers,Dark Brown,4759.37,25,Male,CASH,5,5
SRI9125,2024-01-05,Ballygunj,Oxford Shoes,Charcoal Grey,1270.96,26,Female,UPI,5,5
SRI5525,2023-12-23,Barrackpore,Purse,Charcoal Grey,4062.78,21,Male,UPI,4,4
SRI9160,2024-04-23,Sodepur,Wallet,Dark Brown,3272.32,17,Female,EMI,3,2
SRI3259,2023-07-17,Sodepur,Belt,Burgundy,2513.92,19,Female,EMI,2,1
SRI7746,2024-03-02,Sodepur,Belt,Charcoal Grey,3249.0,30,Male,CREDIT CARD,1,1
SRI1815,2024-04-28,Howrah,Oxford Shoes,Charcoal Grey,3034.57,28,Female,EMI,5,1
SRI1519,2023-10-18,Sodepur,Belt,Charcoal Grey,4189.67,9,Female,EMI,3,4
SRI4476,2024-06-23,Howrah,Oxford Shoes,Burgundy,2448.51,22,Female,CASH,5,3
SRI3888,2023-07-27,Barrackpore,Oxford Shoes,Burgundy,3164.95,20,Male,UPI,2,2
SRI3718,2024-03-07,Ballygunj,Belt,Black,2439.82,22,Female,EMI,4,3
SRI8506,2024-03-29,Ballygunj,Belt,Black,1102.91,18,Male,CASH,3,4
SRI7443,2024-04-26,Ballygunj,Loafers,Dark Brown,995.31,29,Male,UPI,2,1
SRI3147,2023-10-04,Ballygunj,Loafers,Dark Brown,1785.04,12,Male,CREDIT CARD,2,1
SRI9083,2024-05-25,Howrah,Oxford Shoes,Burgundy,1457.77,8,Female,EMI,1,2
SRI2061,2024-04-19,Ballygunj,Wallet,Dark Brown,2317.57,24,Male,CREDIT CARD,1,2
SRI2823,2023-07-04,Ballygunj,Oxford Shoes,Burgundy,581.76,27,Female,EMI,2,3
SRI6568,2023-11-15,Ballygunj,Loafers,Black,723.6,20,Female,CASH,1,1
SRI1261,2024-05-23,Sodepur,Loafers,Dark Brown,1863.45,20,Male,EMI,3,1
SRI8201,2024-06-26,Howrah,Wallet,Black,2143.43,17,Male,UPI,3,1
SRI6925,2023-12-04,Ballygunj,Belt,Charcoal Grey,4053.06,30,Female,EMI,1,5
SRI2530,2023-08-16,Howrah,Oxford Shoes,Black,2464.16,18,Female,CREDIT CARD,1,5
SRI3552,2023-12-24,Ballygunj,Wallet,Black,2528.07,24,Female,CASH,5,1
SRI4022,2023-10-01,Howrah,Belt,Burgundy,2066.91,12,Female,CREDIT CARD,1,4
SRI7146,2024-01-30,Ballygunj,Brouges,Dark Brown,3459.74,23,Female,CASH,2,1
